multiple_mobile:sensor:server_final/ThreeMobilesAndSensors.vcd
$date
     Feb 19, 2018       21:23:05
$end

$version
              SystemC 2.3.0-ASI --- Feb  1 2014 18:12:06
$end

$timescale
     1 ps
$end

$scope module SystemC $end
$var wire    1  aaa  clock       $end
$var wire    1  aab  canSend1       $end
$var wire    1  aac  canSend2       $end
$var wire    1  aad  canSend3       $end
$var wire    1  aae  network       $end
$var wire    1  aaf  tupleClear       $end
$var wire    1  aag  sendRequest1       $end
$var wire    1  aah  sendRequest2       $end
$var wire    1  aai  sendRequest3       $end
$upscope $end
$enddefinitions  $end

$comment
All initial values are dumped below at time 0 sec = 0 timescale units.
$end

$dumpvars
1aaa
0aab
0aac
0aad
0aae
0aaf
0aag
0aah
0aai
$end

#2000000000
0aaa

#4000000000
1aaa

#6000000000
0aaa

#8000000000
1aaa

#10000000000
0aaa

#12000000000
1aaa

#14000000000
0aaa

#16000000000
1aaa

#18000000000
0aaa

#20000000000
1aaa

#22000000000
0aaa

#24000000000
1aaa

#26000000000
0aaa

#28000000000
1aaa

#30000000000
0aaa

#32000000000
1aaa

#34000000000
0aaa

#36000000000
1aaa

#38000000000
0aaa

#40000000000
1aaa

#42000000000
0aaa

#44000000000
1aaa

#46000000000
0aaa

#48000000000
1aaa

#50000000000
0aaa

#52000000000
1aaa

#54000000000
0aaa

#56000000000
1aaa

#58000000000
0aaa

#60000000000
1aaa

#62000000000
0aaa

#64000000000
1aaa

#66000000000
0aaa

#68000000000
1aaa

#70000000000
0aaa

#72000000000
1aaa

#74000000000
0aaa

#76000000000
1aaa

#78000000000
0aaa

#80000000000
1aaa

#82000000000
0aaa

#84000000000
1aaa

#86000000000
0aaa

#88000000000
1aaa

#90000000000
0aaa

#92000000000
1aaa

#94000000000
0aaa

#96000000000
1aaa

#98000000000
0aaa

#100000000000
1aaa

#102000000000
0aaa

#104000000000
1aaa

#106000000000
0aaa

#108000000000
1aaa

#110000000000
0aaa

#112000000000
1aaa

#114000000000
0aaa

#116000000000
1aaa

#118000000000
0aaa

#120000000000
1aaa

#122000000000
0aaa

#124000000000
1aaa
1aah

#125000000000
1aac
1aae

#126000000000
0aaa

#128000000000
1aaa
0aah

#130000000000
0aaa

#132000000000
1aaa

#134000000000
0aaa

#136000000000
1aaa

#138000000000
0aaa

#140000000000
1aaa

#142000000000
0aaa

#144000000000
1aaa

#146000000000
0aaa

#148000000000
1aaa

#150000000000
0aaa

#152000000000
1aaa

#154000000000
0aaa
0aac
0aae

#156000000000
1aaa

#158000000000
0aaa

#160000000000
1aaa

#162000000000
0aaa

#164000000000
1aaa

#166000000000
0aaa

#168000000000
1aaa

#170000000000
0aaa

#172000000000
1aaa

#174000000000
0aaa

#176000000000
1aaa

#178000000000
0aaa

#180000000000
1aaa

#182000000000
0aaa

#184000000000
1aaa

#186000000000
0aaa

#188000000000
1aaa

#190000000000
0aaa

#192000000000
1aaa

#194000000000
0aaa

#196000000000
1aaa

#198000000000
0aaa

#200000000000
1aaa

#202000000000
0aaa

#204000000000
1aaa

#206000000000
0aaa

#208000000000
1aaa

#210000000000
0aaa

#212000000000
1aaa

#214000000000
0aaa

#216000000000
1aaa

#218000000000
0aaa

#220000000000
1aaa

#222000000000
0aaa

#224000000000
1aaa

#226000000000
0aaa

#228000000000
1aaa

#230000000000
0aaa

#232000000000
1aaa
1aah

#233000000000
1aac
1aae

#234000000000
0aaa

#236000000000
1aaa
0aah

#238000000000
0aaa

#240000000000
1aaa

#242000000000
0aaa

#244000000000
1aaa

#246000000000
0aaa

#248000000000
1aaa

#250000000000
0aaa

#252000000000
1aaa

#254000000000
0aaa

#256000000000
1aaa

#258000000000
0aaa

#260000000000
1aaa

#262000000000
0aaa
0aac
0aae

#264000000000
1aaa

#266000000000
0aaa

#268000000000
1aaa

#270000000000
0aaa

#272000000000
1aaa

#274000000000
0aaa

#276000000000
1aaa

#278000000000
0aaa

#280000000000
1aaa

#282000000000
0aaa

#284000000000
1aaa

#286000000000
0aaa

#288000000000
1aaa

#290000000000
0aaa

#292000000000
1aaa

#294000000000
0aaa

#296000000000
1aaa

#298000000000
0aaa

#300000000000
1aaa

#302000000000
0aaa

#304000000000
1aaa

#306000000000
0aaa

#308000000000
1aaa

#310000000000
0aaa

#312000000000
1aaa

#314000000000
0aaa

#316000000000
1aaa
1aai

#317000000000
1aad
1aae

#318000000000
0aaa

#320000000000
1aaa
0aai

#322000000000
0aaa

#324000000000
1aaa

#326000000000
0aaa

#328000000000
1aaa

#330000000000
0aaa

#332000000000
1aaa

#334000000000
0aaa

#336000000000
1aaa

#338000000000
0aaa

#340000000000
1aaa

#342000000000
0aaa

#344000000000
1aaa

#346000000000
0aaa
0aad
0aae

#348000000000
1aaa

#350000000000
0aaa

#352000000000
1aaa

#354000000000
0aaa

#356000000000
1aaa

#358000000000
0aaa

#360000000000
1aaa

#362000000000
0aaa

#364000000000
1aaa

#366000000000
0aaa

#368000000000
1aaa

#370000000000
0aaa

#372000000000
1aaa

#374000000000
0aaa

#376000000000
1aaa

#378000000000
0aaa

#380000000000
1aaa

#382000000000
0aaa

#384000000000
1aaa

#386000000000
0aaa

#388000000000
1aaa

#390000000000
0aaa

#392000000000
1aaa

#394000000000
0aaa

#396000000000
1aaa

#398000000000
0aaa

#400000000000
1aaa

#402000000000
0aaa

#404000000000
1aaa

#406000000000
0aaa

#408000000000
1aaa

#410000000000
0aaa

#412000000000
1aaa
1aai

#413000000000
1aad
1aae

#414000000000
0aaa

#416000000000
1aaa
0aai

#418000000000
0aaa

#420000000000
1aaa

#422000000000
0aaa

#424000000000
1aaa

#426000000000
0aaa

#428000000000
1aaa

#430000000000
0aaa

#432000000000
1aaa

#434000000000
0aaa

#436000000000
1aaa

#438000000000
0aaa

#440000000000
1aaa

#442000000000
0aaa
0aad
0aae

