grid:server_test/Server.vcd
$date
     Feb 19, 2018       21:01:55
$end

$version
 SystemC 2.3.1-Accellera --- Jun  1 2014 14:49:19
$end

$timescale
     1 ps
$end

$scope module SystemC $end
$var wire    1  aaaaa  clock       $end
$var wire    1  aaaab  crossing1       $end
$var wire    1  aaaac  crossing2       $end
$var wire    1  aaaad  crossing3       $end
$var wire    1  aaaae  crossing4       $end
$var real    1  aaaaf  r1speed       $end
$var real    1  aaaag  r1distance       $end
$var real    1  aaaah  r2speed       $end
$var real    1  aaaai  r2distance       $end
$var real    1  aaaaj  r3speed       $end
$var real    1  aaaak  r3distance       $end
$var real    1  aaaal  r4speed       $end
$var real    1  aaaam  r4distance       $end
$var wire    1  aaaan  go1       $end
$var wire    1  aaaao  stop1       $end
$var wire    1  aaaap  go2       $end
$var wire    1  aaaaq  stop2       $end
$var wire    1  aaaar  go3       $end
$var wire    1  aaaas  stop3       $end
$var wire    1  aaaat  go4       $end
$var wire    1  aaaau  stop4       $end
$var real    1  aaaav  tspeed1       $end
$var real    1  aaaaw  tspeed2       $end
$var real    1  aaaax  tspeed3       $end
$var real    1  aaaay  tspeed4       $end
$var wire   32  aaaaz  currentPos1 [31:0]  $end
$var wire   32  aaaba  nextPos1 [31:0]  $end
$var wire   32  aaabb  currentPos2 [31:0]  $end
$var wire   32  aaabc  nextPos2 [31:0]  $end
$var wire   32  aaabd  currentPos3 [31:0]  $end
$var wire   32  aaabe  nextPos3 [31:0]  $end
$var wire   32  aaabf  currentPos4 [31:0]  $end
$var wire   32  aaabg  nextPos4 [31:0]  $end
$upscope $end
$enddefinitions  $end

$comment
All initial values are dumped below at time 0 sec = 0 timescale units.
$end

$dumpvars
1aaaaa
0aaaab
0aaaac
0aaaad
0aaaae
r0 aaaaf
r0 aaaag
r0 aaaah
r0 aaaai
r0 aaaaj
r0 aaaak
r0 aaaal
r0 aaaam
1aaaan
0aaaao
1aaaap
0aaaaq
1aaaar
0aaaas
1aaaat
0aaaau
r0 aaaav
r0 aaaaw
r0 aaaax
r0 aaaay
b11 aaaaz
b100 aaaba
b11110 aaabb
b11011 aaabc
b10111 aaabd
b10110 aaabe
b100010 aaabf
b11111 aaabg
$end

#500000000
0aaaaa

#1000000000
1aaaaa

#1500000000
0aaaaa

#2000000000
1aaaaa

#2500000000
0aaaaa

#3000000000
1aaaaa

#3500000000
0aaaaa

#4000000000
1aaaaa

#4500000000
0aaaaa

#5000000000
1aaaaa

#5500000000
0aaaaa

#6000000000
1aaaaa

#6500000000
0aaaaa

#7000000000
1aaaaa

#7500000000
0aaaaa

#8000000000
1aaaaa

#8500000000
0aaaaa

#9000000000
1aaaaa

#9500000000
0aaaaa

#10000000000
1aaaaa
1aaaab
1aaaac
1aaaad
1aaaae
b100 aaaaz
b101 aaaba
b11011 aaabb
b11000 aaabc
b10110 aaabd
b10101 aaabe
b11111 aaabf
b11100 aaabg

#10500000000
0aaaaa

#11000000000
1aaaaa
0aaaab
0aaaac
0aaaad
0aaaae

#11500000000
0aaaaa

#12000000000
1aaaaa

#12500000000
0aaaaa

#13000000000
1aaaaa

#13500000000
0aaaaa

#14000000000
1aaaaa

#14500000000
0aaaaa

#15000000000
1aaaaa

#15500000000
0aaaaa

#16000000000
1aaaaa

#16500000000
0aaaaa

#17000000000
1aaaaa

#17500000000
0aaaaa

#18000000000
1aaaaa

#18500000000
0aaaaa

#19000000000
1aaaaa

#19500000000
0aaaaa

#20000000000
1aaaaa

#20500000000
0aaaaa

#21000000000
1aaaaa
1aaaab
1aaaac
1aaaad
1aaaae
b101 aaaaz
b110 aaaba
b11000 aaabb
b10111 aaabc
b10101 aaabd
b10100 aaabe
b11100 aaabf
b11001 aaabg

#21500000000
0aaaaa

#22000000000
1aaaaa
0aaaab
0aaaac
0aaaad
0aaaae

#22500000000
0aaaaa

#23000000000
1aaaaa

#23500000000
0aaaaa

#24000000000
1aaaaa

#24500000000
0aaaaa

#25000000000
1aaaaa

#25500000000
0aaaaa

#26000000000
1aaaaa

#26500000000
0aaaaa

#27000000000
1aaaaa

#27500000000
0aaaaa

#28000000000
1aaaaa

#28500000000
0aaaaa

#29000000000
1aaaaa

#29500000000
0aaaaa

#30000000000
1aaaaa

#30500000000
0aaaaa

#31000000000
1aaaaa

#31500000000
0aaaaa

#32000000000
1aaaaa
1aaaab
1aaaac
1aaaad
1aaaae
b110 aaaaz
b111 aaaba
b10111 aaabb
b10110 aaabc
b10100 aaabd
b10011 aaabe
b11001 aaabf
b1111 aaabg

#32500000000
0aaaaa

#33000000000
1aaaaa
0aaaab
0aaaac
0aaaad
0aaaae

#33500000000
0aaaaa

#34000000000
1aaaaa

#34500000000
0aaaaa

#35000000000
1aaaaa

#35500000000
0aaaaa

#36000000000
1aaaaa

#36500000000
0aaaaa

#37000000000
1aaaaa

#37500000000
0aaaaa

#38000000000
1aaaaa

#38500000000
0aaaaa

#39000000000
1aaaaa

#39500000000
0aaaaa

#40000000000
1aaaaa

#40500000000
0aaaaa

#41000000000
1aaaaa

#41500000000
0aaaaa

#42000000000
1aaaaa

#42500000000
0aaaaa

#43000000000
1aaaaa
1aaaab
1aaaac
1aaaad
1aaaae
b111 aaaaz
b1000 aaaba
b10110 aaabb
b10101 aaabc
b10011 aaabd
b10010 aaabe
b1111 aaabf
b10000 aaabg

#43500000000
0aaaaa

#44000000000
1aaaaa
0aaaab
0aaaac
0aaaad
0aaaae

#44500000000
0aaaaa

#45000000000
1aaaaa

#45500000000
0aaaaa

#46000000000
1aaaaa

#46500000000
0aaaaa

#47000000000
1aaaaa

#47500000000
0aaaaa

#48000000000
1aaaaa

#48500000000
0aaaaa

#49000000000
1aaaaa

#49500000000
0aaaaa

#50000000000
1aaaaa

#50500000000
0aaaaa

#51000000000
1aaaaa

#51500000000
0aaaaa

#52000000000
1aaaaa

#52500000000
0aaaaa

#53000000000
1aaaaa

#53500000000
0aaaaa

#54000000000
1aaaaa
1aaaab
1aaaac
1aaaad
1aaaae
b1000 aaaaz
b1001 aaaba
b10101 aaabb
b10100 aaabc
b10010 aaabd
b10001 aaabe
b10000 aaabf
b10001 aaabg

#54500000000
0aaaaa

#55000000000
1aaaaa
0aaaab
0aaaac
0aaaad
0aaaae

#55500000000
0aaaaa

#56000000000
1aaaaa

#56500000000
0aaaaa

#57000000000
1aaaaa

#57500000000
0aaaaa

#58000000000
1aaaaa

#58500000000
0aaaaa

#59000000000
1aaaaa

#59500000000
0aaaaa

#60000000000
1aaaaa

#60500000000
0aaaaa

#61000000000
1aaaaa

#61500000000
0aaaaa

#62000000000
1aaaaa

#62500000000
0aaaaa

#63000000000
1aaaaa

#63500000000
0aaaaa

#64000000000
1aaaaa

#64500000000
0aaaaa

#65000000000
1aaaaa
1aaaab
1aaaac
1aaaad
1aaaae
b1001 aaaaz
b1010 aaaba
b10100 aaabb
b10011 aaabc
b10001 aaabd
b10000 aaabe
b10001 aaabf
b10010 aaabg

#65500000000
0aaaaa

#66000000000
1aaaaa
0aaaab
0aaaac
0aaaad
0aaaae

#66500000000
0aaaaa

#67000000000
1aaaaa

#67500000000
0aaaaa

#68000000000
1aaaaa

#68500000000
0aaaaa

#69000000000
1aaaaa

#69500000000
0aaaaa

#70000000000
1aaaaa

#70500000000
0aaaaa

#71000000000
1aaaaa

#71500000000
0aaaaa

#72000000000
1aaaaa

#72500000000
0aaaaa

#73000000000
1aaaaa

#73500000000
0aaaaa

#74000000000
1aaaaa

#74500000000
0aaaaa

#75000000000
1aaaaa

#75500000000
0aaaaa

#76000000000
1aaaaa
1aaaab
1aaaac
1aaaad
1aaaae
b1010 aaaaz
b1100 aaaba
b10011 aaabb
b11010 aaabc
b10000 aaabd
b1111 aaabe
b10010 aaabf
b10011 aaabg

#76500000000
0aaaaa

#77000000000
1aaaaa
0aaaab
0aaaac
0aaaad
0aaaae

#77500000000
0aaaaa

#78000000000
1aaaaa

#78500000000
0aaaaa

#79000000000
1aaaaa

#79500000000
0aaaaa

#80000000000
1aaaaa

#80500000000
0aaaaa

#81000000000
1aaaaa

#81500000000
0aaaaa

#82000000000
1aaaaa

#82500000000
0aaaaa

#83000000000
1aaaaa

#83500000000
0aaaaa

#84000000000
1aaaaa

#84500000000
0aaaaa

#85000000000
1aaaaa

#85500000000
0aaaaa

#86000000000
1aaaaa

#86500000000
0aaaaa

#87000000000
1aaaaa
1aaaab
1aaaac
1aaaad
1aaaae
b1100 aaaaz
b1110 aaaba
b11010 aaabb
b11101 aaabc
b1111 aaabd
b1101 aaabe
b10011 aaabf
b11010 aaabg

#87500000000
0aaaaa

#88000000000
1aaaaa
0aaaab
0aaaac
0aaaad
0aaaae

#88500000000
0aaaaa

#89000000000
1aaaaa

#89500000000
0aaaaa

#90000000000
1aaaaa

#90500000000
0aaaaa

#91000000000
1aaaaa

#91500000000
0aaaaa

#92000000000
1aaaaa

#92500000000
0aaaaa

#93000000000
1aaaaa

#93500000000
0aaaaa

#94000000000
1aaaaa

#94500000000
0aaaaa

#95000000000
1aaaaa

#95500000000
0aaaaa

#96000000000
1aaaaa

#96500000000
0aaaaa

#97000000000
1aaaaa

#97500000000
0aaaaa

#98000000000
1aaaaa
1aaaab
1aaaac
1aaaad
1aaaae
b1110 aaaaz
b11000 aaaba
b11101 aaabb
b100000 aaabc
b1101 aaabd
b1011 aaabe
b11010 aaabf
b11101 aaabg

#98500000000
0aaaaa

#99000000000
1aaaaa
0aaaab
0aaaac
0aaaad
0aaaae

#99500000000
0aaaaa

#100000000000
1aaaaa

#100500000000
0aaaaa

#101000000000
1aaaaa

#101500000000
0aaaaa

#102000000000
1aaaaa

#102500000000
0aaaaa

#103000000000
1aaaaa

#103500000000
0aaaaa

#104000000000
1aaaaa

#104500000000
0aaaaa

#105000000000
1aaaaa

#105500000000
0aaaaa

#106000000000
1aaaaa

#106500000000
0aaaaa

#107000000000
1aaaaa

#107500000000
0aaaaa

#108000000000
1aaaaa

#108500000000
0aaaaa

#109000000000
1aaaaa
1aaaab
1aaaac
1aaaad
1aaaae
b11000 aaaaz
b10111 aaaba
b100000 aaabb
b100110 aaabc
b1011 aaabd
b0 aaabe
b11101 aaabf
b100000 aaabg

#109500000000
0aaaaa

#110000000000
1aaaaa
0aaaab
0aaaac
0aaaad
0aaaae

#110500000000
0aaaaa

#111000000000
1aaaaa

#111500000000
0aaaaa

#112000000000
1aaaaa

#112500000000
0aaaaa

#113000000000
1aaaaa

#113500000000
0aaaaa

#114000000000
1aaaaa

#114500000000
0aaaaa

#115000000000
1aaaaa

#115500000000
0aaaaa

#116000000000
1aaaaa

#116500000000
0aaaaa

#117000000000
1aaaaa

#117500000000
0aaaaa

#118000000000
1aaaaa

#118500000000
0aaaaa

#119000000000
1aaaaa

#119500000000
0aaaaa

#120000000000
1aaaaa
1aaaab
1aaaac
1aaaad
1aaaae
b10111 aaaaz
b10110 aaaba
b100110 aaabb
b100111 aaabc
b1011 aaabe
b100000 aaabf
b100110 aaabg

#120500000000
0aaaaa

#121000000000
1aaaaa
0aaaab
0aaaac
0aaaad
0aaaae
0aaaar

#121500000000
0aaaaa

#122000000000
1aaaaa

#122500000000
0aaaaa

#123000000000
1aaaaa

#123500000000
0aaaaa

#124000000000
1aaaaa

#124500000000
0aaaaa

#125000000000
1aaaaa

#125500000000
0aaaaa

#126000000000
1aaaaa

#126500000000
0aaaaa

#127000000000
1aaaaa

#127500000000
0aaaaa

#128000000000
1aaaaa

#128500000000
0aaaaa

#129000000000
1aaaaa

#129500000000
0aaaaa

#130000000000
1aaaaa

#130500000000
0aaaaa

#131000000000
1aaaaa
1aaaab
1aaaac
1aaaad
1aaaae
b10110 aaaaz
b0 aaaba
b100111 aaabb
b0 aaabc
b100110 aaabf
b100101 aaabg

#131500000000
0aaaaa

#132000000000
1aaaaa
0aaaab
0aaaac
0aaaad
0aaaae

#132500000000
0aaaaa

#133000000000
1aaaaa

#133500000000
0aaaaa

#134000000000
1aaaaa

#134500000000
0aaaaa

#135000000000
1aaaaa

#135500000000
0aaaaa

#136000000000
1aaaaa

#136500000000
0aaaaa

#137000000000
1aaaaa

#137500000000
0aaaaa

#138000000000
1aaaaa

#138500000000
0aaaaa

#139000000000
1aaaaa

#139500000000
0aaaaa

#140000000000
1aaaaa

#140500000000
0aaaaa

#141000000000
1aaaaa

#141500000000
0aaaaa

#142000000000
1aaaaa
1aaaab
1aaaac
1aaaad
1aaaae
b10110 aaaba
b100111 aaabc
b100101 aaabf
b0 aaabg

#142500000000
0aaaaa

#143000000000
1aaaaa
0aaaab
0aaaac
0aaaad
0aaaae
0aaaan
0aaaap

#143500000000
0aaaaa

#144000000000
1aaaaa

#144500000000
0aaaaa

#145000000000
1aaaaa

#145500000000
0aaaaa

#146000000000
1aaaaa

#146500000000
0aaaaa

#147000000000
1aaaaa

#147500000000
0aaaaa

#148000000000
1aaaaa

#148500000000
0aaaaa

#149000000000
1aaaaa

#149500000000
0aaaaa

#150000000000
1aaaaa

#150500000000
0aaaaa

#151000000000
1aaaaa

#151500000000
0aaaaa

#152000000000
1aaaaa

#152500000000
0aaaaa

#153000000000
1aaaaa
1aaaab
1aaaac
1aaaad
1aaaae
b100101 aaabg

#153500000000
0aaaaa

#154000000000
1aaaaa
0aaaab
0aaaac
0aaaad
0aaaae
0aaaat

#154500000000
0aaaaa

#155000000000
1aaaaa

#155500000000
0aaaaa

#156000000000
1aaaaa

#156500000000
0aaaaa

#157000000000
1aaaaa

#157500000000
0aaaaa

#158000000000
1aaaaa

#158500000000
0aaaaa

#159000000000
1aaaaa

#159500000000
0aaaaa

#160000000000
1aaaaa

#160500000000
0aaaaa

#161000000000
1aaaaa

#161500000000
0aaaaa

#162000000000
1aaaaa

#162500000000
0aaaaa

#163000000000
1aaaaa

#163500000000
0aaaaa

#164000000000
1aaaaa
1aaaab
1aaaac
1aaaad
1aaaae

#164500000000
0aaaaa

#165000000000
1aaaaa
0aaaab
0aaaac
0aaaad
0aaaae

#165500000000
0aaaaa

#166000000000
1aaaaa

#166500000000
0aaaaa

#167000000000
1aaaaa

#167500000000
0aaaaa

#168000000000
1aaaaa

#168500000000
0aaaaa

#169000000000
1aaaaa

#169500000000
0aaaaa

#170000000000
1aaaaa

#170500000000
0aaaaa

#171000000000
1aaaaa

#171500000000
0aaaaa

#172000000000
1aaaaa

#172500000000
0aaaaa

#173000000000
1aaaaa

#173500000000
0aaaaa

#174000000000
1aaaaa

#174500000000
0aaaaa

#175000000000
1aaaaa
1aaaab
1aaaac
1aaaad
1aaaae

#175500000000
0aaaaa

#176000000000
1aaaaa
0aaaab
0aaaac
0aaaad
0aaaae

#176500000000
0aaaaa

#177000000000
1aaaaa

#177500000000
0aaaaa

#178000000000
1aaaaa

#178500000000
0aaaaa

#179000000000
1aaaaa

#179500000000
0aaaaa

#180000000000
1aaaaa

#180500000000
0aaaaa

#181000000000
1aaaaa

#181500000000
0aaaaa

#182000000000
1aaaaa

#182500000000
0aaaaa

#183000000000
1aaaaa

#183500000000
0aaaaa

#184000000000
1aaaaa

#184500000000
0aaaaa

#185000000000
1aaaaa

#185500000000
0aaaaa

#186000000000
1aaaaa
1aaaab
1aaaac
1aaaad
1aaaae

