robot_test/Robot.vcd
$date
     Feb 19, 2018       21:07:38
$end

$version
 SystemC 2.3.1-Accellera --- Jun  1 2014 14:49:19
$end

$timescale
     1 ps
$end

$scope module SystemC $end
$var wire    1  aaaaa  clock       $end
$var wire    1  aaaab  go       $end
$var wire    1  aaaac  stop       $end
$var real    1  aaaad  speed       $end
$var real    1  aaaae  distance       $end
$var real    1  aaaaf  targetSpeed       $end
$var wire    1  aaaag  crossing       $end
$var real    1  aaaah  distanceToNextCrossing       $end
$upscope $end
$enddefinitions  $end

$comment
All initial values are dumped below at time 0 sec = 0 timescale units.
$end

$dumpvars
1aaaaa
0aaaab
0aaaac
r0 aaaad
r0 aaaae
r0 aaaaf
0aaaag
r0 aaaah
$end

#500000000
0aaaaa

#1000000000
1aaaaa

#1500000000
0aaaaa

#2000000000
1aaaaa

#2500000000
0aaaaa

#3000000000
1aaaaa

#3500000000
0aaaaa

#4000000000
1aaaaa

#4500000000
0aaaaa

#5000000000
1aaaaa

#5500000000
0aaaaa

#6000000000
1aaaaa

#6500000000
0aaaaa

#7000000000
1aaaaa

#7500000000
0aaaaa

#8000000000
1aaaaa

#8500000000
0aaaaa

#9000000000
1aaaaa

#9500000000
0aaaaa

#10000000000
1aaaaa
1aaaab
r1e-06 aaaad
r2 aaaaf

#10500000000
0aaaaa

#11000000000
1aaaaa
r2e-06 aaaad
r1e-06 aaaae
r1e-06 aaaah

#11500000000
0aaaaa

#12000000000
1aaaaa
r3e-06 aaaad
r3e-06 aaaae
r3e-06 aaaah

#12500000000
0aaaaa

#13000000000
1aaaaa
r4e-06 aaaad
r6e-06 aaaae
r6e-06 aaaah

#13500000000
0aaaaa

#14000000000
1aaaaa
r5e-06 aaaad
r9.999999999999999e-06 aaaae
r9.999999999999999e-06 aaaah

#14500000000
0aaaaa

#15000000000
1aaaaa
r5.999999999999999e-06 aaaad
r1.5e-05 aaaae
r1.5e-05 aaaah

#15500000000
0aaaaa

#16000000000
1aaaaa
r6.999999999999999e-06 aaaad
r2.1e-05 aaaae
r2.1e-05 aaaah

#16500000000
0aaaaa

#17000000000
1aaaaa
r8e-06 aaaad
r2.8e-05 aaaae
r2.8e-05 aaaah

#17500000000
0aaaaa

#18000000000
1aaaaa
r9e-06 aaaad
r3.599999999999999e-05 aaaae
r3.599999999999999e-05 aaaah

#18500000000
0aaaaa

#19000000000
1aaaaa
r1e-05 aaaad
r4.5e-05 aaaae
r4.5e-05 aaaah

#19500000000
0aaaaa

#20000000000
1aaaaa
r1.1e-05 aaaad
r5.5e-05 aaaae
r5.5e-05 aaaah

#20500000000
0aaaaa

#21000000000
1aaaaa
r1.2e-05 aaaad
r6.599999999999999e-05 aaaae
r6.599999999999999e-05 aaaah

#21500000000
0aaaaa

#22000000000
1aaaaa
r1.3e-05 aaaad
r7.8e-05 aaaae
r7.8e-05 aaaah

#22500000000
0aaaaa

#23000000000
1aaaaa
r1.4e-05 aaaad
r9.1e-05 aaaae
r9.1e-05 aaaah

#23500000000
0aaaaa

#24000000000
1aaaaa
r1.5e-05 aaaad
r0.000105 aaaae
r0.000105 aaaah

#24500000000
0aaaaa

#25000000000
1aaaaa
r1.6e-05 aaaad
r0.00012 aaaae
r0.00012 aaaah

#25500000000
0aaaaa

#26000000000
1aaaaa
r1.7e-05 aaaad
r0.000136 aaaae
r0.000136 aaaah

#26500000000
0aaaaa

#27000000000
1aaaaa
r1.8e-05 aaaad
r0.000153 aaaae
r0.000153 aaaah

#27500000000
0aaaaa

#28000000000
1aaaaa
r1.9e-05 aaaad
r0.000171 aaaae
r0.000171 aaaah

#28500000000
0aaaaa

#29000000000
1aaaaa
r2.000000000000001e-05 aaaad
r0.00019 aaaae
r0.00019 aaaah

#29500000000
0aaaaa

#30000000000
1aaaaa
r2.100000000000001e-05 aaaad
r0.00021 aaaae
r0.00021 aaaah

#30500000000
0aaaaa

#31000000000
1aaaaa
r2.200000000000001e-05 aaaad
r0.000231 aaaae
r0.000231 aaaah

#31500000000
0aaaaa

#32000000000
1aaaaa
r2.300000000000001e-05 aaaad
r0.000253 aaaae
r0.000253 aaaah

#32500000000
0aaaaa

#33000000000
1aaaaa
r2.400000000000001e-05 aaaad
r0.000276 aaaae
r0.000276 aaaah

#33500000000
0aaaaa

#34000000000
1aaaaa
r2.500000000000001e-05 aaaad
r0.0003 aaaae
r0.0003 aaaah

#34500000000
0aaaaa

#35000000000
1aaaaa
r2.600000000000001e-05 aaaad
r0.000325 aaaae
r0.000325 aaaah

#35500000000
0aaaaa

#36000000000
1aaaaa
r2.700000000000001e-05 aaaad
r0.0003510000000000001 aaaae
r0.0003510000000000001 aaaah

#36500000000
0aaaaa

#37000000000
1aaaaa
r2.800000000000001e-05 aaaad
r0.0003780000000000001 aaaae
r0.0003780000000000001 aaaah

#37500000000
0aaaaa

#38000000000
1aaaaa
r2.900000000000001e-05 aaaad
r0.0004060000000000001 aaaae
r0.0004060000000000001 aaaah

#38500000000
0aaaaa

#39000000000
1aaaaa
r3.000000000000001e-05 aaaad
r0.0004350000000000001 aaaae
r0.0004350000000000001 aaaah

#39500000000
0aaaaa

#40000000000
1aaaaa
r3.100000000000001e-05 aaaad
r0.0004650000000000001 aaaae
r0.0004650000000000001 aaaah

#40500000000
0aaaaa

#41000000000
1aaaaa
r3.200000000000001e-05 aaaad
r0.0004960000000000001 aaaae
r0.0004960000000000001 aaaah

#41500000000
0aaaaa

#42000000000
1aaaaa
r3.3e-05 aaaad
r0.0005280000000000001 aaaae
r0.0005280000000000001 aaaah

#42500000000
0aaaaa

#43000000000
1aaaaa
r3.4e-05 aaaad
r0.0005610000000000002 aaaae
r0.0005610000000000002 aaaah

#43500000000
0aaaaa

#44000000000
1aaaaa
r3.5e-05 aaaad
r0.0005950000000000002 aaaae
r0.0005950000000000002 aaaah

#44500000000
0aaaaa

#45000000000
1aaaaa
r3.599999999999999e-05 aaaad
r0.0006300000000000001 aaaae
r0.0006300000000000001 aaaah

#45500000000
0aaaaa

#46000000000
1aaaaa
r3.699999999999999e-05 aaaad
r0.0006660000000000001 aaaae
r0.0006660000000000001 aaaah

#46500000000
0aaaaa

#47000000000
1aaaaa
r3.799999999999999e-05 aaaad
r0.0007030000000000002 aaaae
r0.0007030000000000002 aaaah

#47500000000
0aaaaa

#48000000000
1aaaaa
r3.899999999999999e-05 aaaad
r0.0007410000000000001 aaaae
r0.0007410000000000001 aaaah

#48500000000
0aaaaa

#49000000000
1aaaaa
r3.999999999999998e-05 aaaad
r0.0007800000000000001 aaaae
r0.0007800000000000001 aaaah

#49500000000
0aaaaa

#50000000000
1aaaaa
r4.099999999999998e-05 aaaad
r0.0008200000000000001 aaaae
r0.0008200000000000001 aaaah

#50500000000
0aaaaa

#51000000000
1aaaaa
r4.199999999999998e-05 aaaad
r0.0008610000000000001 aaaae
r0.0008610000000000001 aaaah

#51500000000
0aaaaa

#52000000000
1aaaaa
r4.299999999999997e-05 aaaad
r0.000903 aaaae
r0.000903 aaaah

#52500000000
0aaaaa

#53000000000
1aaaaa
r4.399999999999997e-05 aaaad
r0.000946 aaaae
r0.000946 aaaah

#53500000000
0aaaaa

#54000000000
1aaaaa
r4.499999999999997e-05 aaaad
r0.00099 aaaae
r0.00099 aaaah

#54500000000
0aaaaa

#55000000000
1aaaaa
r4.599999999999997e-05 aaaad
r0.001035 aaaae
r0.001035 aaaah

#55500000000
0aaaaa

#56000000000
1aaaaa
r4.699999999999996e-05 aaaad
r0.001081 aaaae
r0.001081 aaaah

#56500000000
0aaaaa

#57000000000
1aaaaa
r4.799999999999996e-05 aaaad
r0.001128 aaaae
r0.001128 aaaah

#57500000000
0aaaaa

#58000000000
1aaaaa
r4.899999999999996e-05 aaaad
r0.001176 aaaae
r0.001176 aaaah

#58500000000
0aaaaa

#59000000000
1aaaaa
r4.999999999999995e-05 aaaad
r0.001225 aaaae
r0.001225 aaaah

#59500000000
0aaaaa

#60000000000
1aaaaa
r5.099999999999995e-05 aaaad
r0.001275 aaaae
r0.001275 aaaah

#60500000000
0aaaaa

#61000000000
1aaaaa
r5.199999999999995e-05 aaaad
r0.001326 aaaae
r0.001326 aaaah

#61500000000
0aaaaa

#62000000000
1aaaaa
r5.299999999999995e-05 aaaad
r0.001378 aaaae
r0.001378 aaaah

#62500000000
0aaaaa

#63000000000
1aaaaa
r5.399999999999994e-05 aaaad
r0.001431 aaaae
r0.001431 aaaah

#63500000000
0aaaaa

#64000000000
1aaaaa
r5.499999999999994e-05 aaaad
r0.001485 aaaae
r0.001485 aaaah

#64500000000
0aaaaa

#65000000000
1aaaaa
r5.599999999999994e-05 aaaad
r0.001539999999999999 aaaae
r0.001539999999999999 aaaah

#65500000000
0aaaaa

#66000000000
1aaaaa
r5.699999999999994e-05 aaaad
r0.001595999999999999 aaaae
r0.001595999999999999 aaaah

#66500000000
0aaaaa

#67000000000
1aaaaa
r5.799999999999993e-05 aaaad
r0.001652999999999999 aaaae
r0.001652999999999999 aaaah

#67500000000
0aaaaa

#68000000000
1aaaaa
r5.899999999999993e-05 aaaad
r0.001710999999999999 aaaae
r0.001710999999999999 aaaah

#68500000000
0aaaaa

#69000000000
1aaaaa
r5.999999999999993e-05 aaaad
r0.001769999999999999 aaaae
r0.001769999999999999 aaaah

#69500000000
0aaaaa

#70000000000
1aaaaa
r6.099999999999992e-05 aaaad
r0.001829999999999999 aaaae
r0.001829999999999999 aaaah

#70500000000
0aaaaa

#71000000000
1aaaaa
r6.199999999999992e-05 aaaad
r0.001890999999999999 aaaae
r0.001890999999999999 aaaah

#71500000000
0aaaaa

#72000000000
1aaaaa
r6.299999999999992e-05 aaaad
r0.001952999999999999 aaaae
r0.001952999999999999 aaaah

#72500000000
0aaaaa

#73000000000
1aaaaa
r6.399999999999992e-05 aaaad
r0.002015999999999999 aaaae
r0.002015999999999999 aaaah

#73500000000
0aaaaa

#74000000000
1aaaaa
r6.499999999999991e-05 aaaad
r0.002079999999999999 aaaae
r0.002079999999999999 aaaah

#74500000000
0aaaaa

#75000000000
1aaaaa
r6.599999999999991e-05 aaaad
r0.002144999999999999 aaaae
r0.002144999999999999 aaaah

#75500000000
0aaaaa

#76000000000
1aaaaa
r6.699999999999991e-05 aaaad
r0.002210999999999999 aaaae
r0.002210999999999999 aaaah

#76500000000
0aaaaa

#77000000000
1aaaaa
r6.79999999999999e-05 aaaad
r0.002277999999999999 aaaae
r0.002277999999999999 aaaah

#77500000000
0aaaaa

#78000000000
1aaaaa
r6.89999999999999e-05 aaaad
r0.002345999999999999 aaaae
r0.002345999999999999 aaaah

#78500000000
0aaaaa

#79000000000
1aaaaa
r6.99999999999999e-05 aaaad
r0.002414999999999999 aaaae
r0.002414999999999999 aaaah

#79500000000
0aaaaa

#80000000000
1aaaaa
r7.09999999999999e-05 aaaad
r0.002484999999999998 aaaae
r0.002484999999999998 aaaah

#80500000000
0aaaaa

#81000000000
1aaaaa
r7.199999999999989e-05 aaaad
r0.002555999999999998 aaaae
r0.002555999999999998 aaaah

#81500000000
0aaaaa

#82000000000
1aaaaa
r7.299999999999989e-05 aaaad
r0.002627999999999998 aaaae
r0.002627999999999998 aaaah

#82500000000
0aaaaa

#83000000000
1aaaaa
r7.399999999999989e-05 aaaad
r0.002700999999999998 aaaae
r0.002700999999999998 aaaah

#83500000000
0aaaaa

#84000000000
1aaaaa
r7.499999999999989e-05 aaaad
r0.002774999999999998 aaaae
r0.002774999999999998 aaaah

#84500000000
0aaaaa

#85000000000
1aaaaa
r7.599999999999988e-05 aaaad
r0.002849999999999998 aaaae
r0.002849999999999998 aaaah

#85500000000
0aaaaa

#86000000000
1aaaaa
r7.699999999999988e-05 aaaad
r0.002925999999999998 aaaae
r0.002925999999999998 aaaah

#86500000000
0aaaaa

#87000000000
1aaaaa
r7.799999999999988e-05 aaaad
r0.003002999999999997 aaaae
r0.003002999999999997 aaaah

#87500000000
0aaaaa

#88000000000
1aaaaa
r7.899999999999987e-05 aaaad
r0.003080999999999997 aaaae
r0.003080999999999997 aaaah

#88500000000
0aaaaa

#89000000000
1aaaaa
r7.999999999999987e-05 aaaad
r0.003159999999999997 aaaae
r0.003159999999999997 aaaah

#89500000000
0aaaaa

#90000000000
1aaaaa
r8.099999999999987e-05 aaaad
r0.003239999999999997 aaaae
r0.003239999999999997 aaaah

#90500000000
0aaaaa

#91000000000
1aaaaa
r8.199999999999987e-05 aaaad
r0.003320999999999997 aaaae
r0.003320999999999997 aaaah

#91500000000
0aaaaa

#92000000000
1aaaaa
r8.299999999999986e-05 aaaad
r0.003402999999999997 aaaae
r0.003402999999999997 aaaah

#92500000000
0aaaaa

#93000000000
1aaaaa
r8.399999999999986e-05 aaaad
r0.003485999999999997 aaaae
r0.003485999999999997 aaaah

#93500000000
0aaaaa

#94000000000
1aaaaa
r8.499999999999986e-05 aaaad
r0.003569999999999997 aaaae
r0.003569999999999997 aaaah

#94500000000
0aaaaa

#95000000000
1aaaaa
r8.599999999999985e-05 aaaad
r0.003654999999999997 aaaae
r0.003654999999999997 aaaah

#95500000000
0aaaaa

#96000000000
1aaaaa
r8.699999999999985e-05 aaaad
r0.003740999999999996 aaaae
r0.003740999999999996 aaaah

#96500000000
0aaaaa

#97000000000
1aaaaa
r8.799999999999985e-05 aaaad
r0.003827999999999996 aaaae
r0.003827999999999996 aaaah

#97500000000
0aaaaa

#98000000000
1aaaaa
r8.899999999999985e-05 aaaad
r0.003915999999999996 aaaae
r0.003915999999999996 aaaah

#98500000000
0aaaaa

#99000000000
1aaaaa
r8.999999999999984e-05 aaaad
r0.004004999999999996 aaaae
r0.004004999999999996 aaaah

#99500000000
0aaaaa

#100000000000
1aaaaa
r9.099999999999984e-05 aaaad
r0.004094999999999995 aaaae
r0.004094999999999995 aaaah

#100500000000
0aaaaa

#101000000000
1aaaaa
r9.199999999999984e-05 aaaad
r0.004185999999999995 aaaae
r0.004185999999999995 aaaah

#101500000000
0aaaaa

#102000000000
1aaaaa
r9.299999999999983e-05 aaaad
r0.004277999999999995 aaaae
r0.004277999999999995 aaaah

#102500000000
0aaaaa

#103000000000
1aaaaa
r9.399999999999983e-05 aaaad
r0.004370999999999996 aaaae
r0.004370999999999996 aaaah

#103500000000
0aaaaa

#104000000000
1aaaaa
r9.499999999999983e-05 aaaad
r0.004464999999999995 aaaae
r0.004464999999999995 aaaah

#104500000000
0aaaaa

#105000000000
1aaaaa
r9.599999999999983e-05 aaaad
r0.004559999999999995 aaaae
r0.004559999999999995 aaaah

#105500000000
0aaaaa

#106000000000
1aaaaa
r9.699999999999982e-05 aaaad
r0.004655999999999994 aaaae
r0.004655999999999994 aaaah

#106500000000
0aaaaa

#107000000000
1aaaaa
r9.799999999999982e-05 aaaad
r0.004752999999999994 aaaae
r0.004752999999999994 aaaah

#107500000000
0aaaaa

#108000000000
1aaaaa
r9.899999999999982e-05 aaaad
r0.004850999999999994 aaaae
r0.004850999999999994 aaaah

#108500000000
0aaaaa

#109000000000
1aaaaa
r9.999999999999982e-05 aaaad
r0.004949999999999994 aaaae
r0.004949999999999994 aaaah

#109500000000
0aaaaa

#110000000000
1aaaaa
r0.0001009999999999998 aaaad
r0.005049999999999994 aaaae
r0.005049999999999994 aaaah

#110500000000
0aaaaa

#111000000000
1aaaaa
r0.0001019999999999998 aaaad
r0.005150999999999993 aaaae
r0.005150999999999993 aaaah

#111500000000
0aaaaa

#112000000000
1aaaaa
r0.0001029999999999998 aaaad
r0.005252999999999993 aaaae
r0.005252999999999993 aaaah

#112500000000
0aaaaa

#113000000000
1aaaaa
r0.0001039999999999998 aaaad
r0.005355999999999993 aaaae
r0.005355999999999993 aaaah

#113500000000
0aaaaa

#114000000000
1aaaaa
r0.0001049999999999998 aaaad
r0.005459999999999993 aaaae
r0.005459999999999993 aaaah

#114500000000
0aaaaa

#115000000000
1aaaaa
r0.0001059999999999998 aaaad
r0.005564999999999993 aaaae
r0.005564999999999993 aaaah

#115500000000
0aaaaa

#116000000000
1aaaaa
r0.0001069999999999998 aaaad
r0.005670999999999993 aaaae
r0.005670999999999993 aaaah

#116500000000
0aaaaa

#117000000000
1aaaaa
r0.0001079999999999998 aaaad
r0.005777999999999992 aaaae
r0.005777999999999992 aaaah

#117500000000
0aaaaa

#118000000000
1aaaaa
r0.0001089999999999998 aaaad
r0.005885999999999992 aaaae
r0.005885999999999992 aaaah

#118500000000
0aaaaa

#119000000000
1aaaaa
r0.0001099999999999998 aaaad
r0.005994999999999992 aaaae
r0.005994999999999992 aaaah

#119500000000
0aaaaa

#120000000000
1aaaaa
r0.0001109999999999998 aaaad
r0.006104999999999992 aaaae
r0.006104999999999992 aaaah

#120500000000
0aaaaa

#121000000000
1aaaaa
r0.0001119999999999998 aaaad
r0.006215999999999991 aaaae
r0.006215999999999991 aaaah

#121500000000
0aaaaa

#122000000000
1aaaaa
r0.0001129999999999998 aaaad
r0.006327999999999992 aaaae
r0.006327999999999992 aaaah

#122500000000
0aaaaa

#123000000000
1aaaaa
r0.0001139999999999998 aaaad
r0.006440999999999991 aaaae
r0.006440999999999991 aaaah

#123500000000
0aaaaa

#124000000000
1aaaaa
r0.0001149999999999998 aaaad
r0.006554999999999991 aaaae
r0.006554999999999991 aaaah

#124500000000
0aaaaa

#125000000000
1aaaaa
r0.0001159999999999998 aaaad
r0.00666999999999999 aaaae
r0.00666999999999999 aaaah

#125500000000
0aaaaa

#126000000000
1aaaaa
r0.0001169999999999998 aaaad
r0.00678599999999999 aaaae
r0.00678599999999999 aaaah

#126500000000
0aaaaa

#127000000000
1aaaaa
r0.0001179999999999998 aaaad
r0.00690299999999999 aaaae
r0.00690299999999999 aaaah

#127500000000
0aaaaa

#128000000000
1aaaaa
r0.0001189999999999998 aaaad
r0.00702099999999999 aaaae
r0.00702099999999999 aaaah

#128500000000
0aaaaa

#129000000000
1aaaaa
r0.0001199999999999998 aaaad
r0.00713999999999999 aaaae
r0.00713999999999999 aaaah

#129500000000
0aaaaa

#130000000000
1aaaaa
r0.0001209999999999998 aaaad
r0.00725999999999999 aaaae
r0.00725999999999999 aaaah

#130500000000
0aaaaa

#131000000000
1aaaaa
r0.0001219999999999998 aaaad
r0.007380999999999989 aaaae
r0.007380999999999989 aaaah

#131500000000
0aaaaa

#132000000000
1aaaaa
r0.0001229999999999998 aaaad
r0.007502999999999989 aaaae
r0.007502999999999989 aaaah

#132500000000
0aaaaa

#133000000000
1aaaaa
r0.0001239999999999998 aaaad
r0.007625999999999989 aaaae
r0.007625999999999989 aaaah

#133500000000
0aaaaa

#134000000000
1aaaaa
r0.0001249999999999998 aaaad
r0.007749999999999989 aaaae
r0.007749999999999989 aaaah

#134500000000
0aaaaa

#135000000000
1aaaaa
r0.0001259999999999998 aaaad
r0.007874999999999988 aaaae
r0.007874999999999988 aaaah

#135500000000
0aaaaa

#136000000000
1aaaaa
r0.0001269999999999998 aaaad
r0.008000999999999987 aaaae
r0.008000999999999987 aaaah

#136500000000
0aaaaa

#137000000000
1aaaaa
r0.0001279999999999998 aaaad
r0.008127999999999988 aaaae
r0.008127999999999988 aaaah

#137500000000
0aaaaa

#138000000000
1aaaaa
r0.0001289999999999997 aaaad
r0.008255999999999987 aaaae
r0.008255999999999987 aaaah

#138500000000
0aaaaa

#139000000000
1aaaaa
r0.0001299999999999997 aaaad
r0.008384999999999986 aaaae
r0.008384999999999986 aaaah

#139500000000
0aaaaa

#140000000000
1aaaaa
r0.0001309999999999997 aaaad
r0.008514999999999986 aaaae
r0.008514999999999986 aaaah

#140500000000
0aaaaa

#141000000000
1aaaaa
r0.0001319999999999997 aaaad
r0.008645999999999985 aaaae
r0.008645999999999985 aaaah

#141500000000
0aaaaa

#142000000000
1aaaaa
r0.0001329999999999997 aaaad
r0.008777999999999985 aaaae
r0.008777999999999985 aaaah

#142500000000
0aaaaa

#143000000000
1aaaaa
r0.0001339999999999997 aaaad
r0.008910999999999985 aaaae
r0.008910999999999985 aaaah

#143500000000
0aaaaa

#144000000000
1aaaaa
r0.0001349999999999997 aaaad
r0.009044999999999985 aaaae
r0.009044999999999985 aaaah

#144500000000
0aaaaa

#145000000000
1aaaaa
r0.0001359999999999997 aaaad
r0.009179999999999985 aaaae
r0.009179999999999985 aaaah

#145500000000
0aaaaa

#146000000000
1aaaaa
r0.0001369999999999997 aaaad
r0.009315999999999984 aaaae
r0.009315999999999984 aaaah

#146500000000
0aaaaa

#147000000000
1aaaaa
r0.0001379999999999997 aaaad
r0.009452999999999984 aaaae
r0.009452999999999984 aaaah

#147500000000
0aaaaa

#148000000000
1aaaaa
r0.0001389999999999997 aaaad
r0.009590999999999983 aaaae
r0.009590999999999983 aaaah

#148500000000
0aaaaa

#149000000000
1aaaaa
r0.0001399999999999997 aaaad
r0.009729999999999983 aaaae
r0.009729999999999983 aaaah

#149500000000
0aaaaa

#150000000000
1aaaaa
r0.0001409999999999997 aaaad
r0.009869999999999983 aaaae
r0.009869999999999983 aaaah

#150500000000
0aaaaa

#151000000000
1aaaaa
r0.0001419999999999997 aaaad
r0.01001099999999998 aaaae
r0.01001099999999998 aaaah

#151500000000
0aaaaa

#152000000000
1aaaaa
r0.0001429999999999997 aaaad
r0.01015299999999998 aaaae
r0.01015299999999998 aaaah

#152500000000
0aaaaa

#153000000000
1aaaaa
r0.0001439999999999997 aaaad
r0.01029599999999998 aaaae
r0.01029599999999998 aaaah

#153500000000
0aaaaa

#154000000000
1aaaaa
r0.0001449999999999997 aaaad
r0.01043999999999998 aaaae
r0.01043999999999998 aaaah

#154500000000
0aaaaa

#155000000000
1aaaaa
r0.0001459999999999997 aaaad
r0.01058499999999998 aaaae
r0.01058499999999998 aaaah

#155500000000
0aaaaa

#156000000000
1aaaaa
r0.0001469999999999997 aaaad
r0.01073099999999998 aaaae
r0.01073099999999998 aaaah

#156500000000
0aaaaa

#157000000000
1aaaaa
r0.0001479999999999997 aaaad
r0.01087799999999998 aaaae
r0.01087799999999998 aaaah

#157500000000
0aaaaa

#158000000000
1aaaaa
r0.0001489999999999997 aaaad
r0.01102599999999998 aaaae
r0.01102599999999998 aaaah

#158500000000
0aaaaa

#159000000000
1aaaaa
r0.0001499999999999997 aaaad
r0.01117499999999998 aaaae
r0.01117499999999998 aaaah

#159500000000
0aaaaa

#160000000000
1aaaaa
r0.0001509999999999997 aaaad
r0.01132499999999998 aaaae
r0.01132499999999998 aaaah

#160500000000
0aaaaa

#161000000000
1aaaaa
r0.0001519999999999997 aaaad
r0.01147599999999998 aaaae
r0.01147599999999998 aaaah

#161500000000
0aaaaa

#162000000000
1aaaaa
r0.0001529999999999997 aaaad
r0.01162799999999998 aaaae
r0.01162799999999998 aaaah

#162500000000
0aaaaa

#163000000000
1aaaaa
r0.0001539999999999997 aaaad
r0.01178099999999998 aaaae
r0.01178099999999998 aaaah

#163500000000
0aaaaa

#164000000000
1aaaaa
r0.0001549999999999997 aaaad
r0.01193499999999998 aaaae
r0.01193499999999998 aaaah

#164500000000
0aaaaa

#165000000000
1aaaaa
r0.0001559999999999997 aaaad
r0.01208999999999998 aaaae
r0.01208999999999998 aaaah

#165500000000
0aaaaa

#166000000000
1aaaaa
r0.0001569999999999997 aaaad
r0.01224599999999998 aaaae
r0.01224599999999998 aaaah

#166500000000
0aaaaa

#167000000000
1aaaaa
r0.0001579999999999997 aaaad
r0.01240299999999998 aaaae
r0.01240299999999998 aaaah

#167500000000
0aaaaa

#168000000000
1aaaaa
r0.0001589999999999997 aaaad
r0.01256099999999998 aaaae
r0.01256099999999998 aaaah

#168500000000
0aaaaa

#169000000000
1aaaaa
r0.0001599999999999997 aaaad
r0.01271999999999998 aaaae
r0.01271999999999998 aaaah

#169500000000
0aaaaa

#170000000000
1aaaaa
r0.0001609999999999997 aaaad
r0.01287999999999998 aaaae
r0.01287999999999998 aaaah

#170500000000
0aaaaa

#171000000000
1aaaaa
r0.0001619999999999997 aaaad
r0.01304099999999998 aaaae
r0.01304099999999998 aaaah

#171500000000
0aaaaa

#172000000000
1aaaaa
r0.0001629999999999997 aaaad
r0.01320299999999998 aaaae
r0.01320299999999998 aaaah

#172500000000
0aaaaa

#173000000000
1aaaaa
r0.0001639999999999996 aaaad
r0.01336599999999998 aaaae
r0.01336599999999998 aaaah

#173500000000
0aaaaa

#174000000000
1aaaaa
r0.0001649999999999996 aaaad
r0.01352999999999997 aaaae
r0.01352999999999997 aaaah

#174500000000
0aaaaa

#175000000000
1aaaaa
r0.0001659999999999996 aaaad
r0.01369499999999997 aaaae
r0.01369499999999997 aaaah

#175500000000
0aaaaa

#176000000000
1aaaaa
r0.0001669999999999996 aaaad
r0.01386099999999997 aaaae
r0.01386099999999997 aaaah

#176500000000
0aaaaa

#177000000000
1aaaaa
r0.0001679999999999996 aaaad
r0.01402799999999997 aaaae
r0.01402799999999997 aaaah

#177500000000
0aaaaa

#178000000000
1aaaaa
r0.0001689999999999996 aaaad
r0.01419599999999997 aaaae
r0.01419599999999997 aaaah

#178500000000
0aaaaa

#179000000000
1aaaaa
r0.0001699999999999996 aaaad
r0.01436499999999997 aaaae
r0.01436499999999997 aaaah

#179500000000
0aaaaa

#180000000000
1aaaaa
r0.0001709999999999996 aaaad
r0.01453499999999997 aaaae
r0.01453499999999997 aaaah

#180500000000
0aaaaa

#181000000000
1aaaaa
r0.0001719999999999996 aaaad
r0.01470599999999997 aaaae
r0.01470599999999997 aaaah

#181500000000
0aaaaa

#182000000000
1aaaaa
r0.0001729999999999996 aaaad
r0.01487799999999997 aaaae
r0.01487799999999997 aaaah

#182500000000
0aaaaa

#183000000000
1aaaaa
r0.0001739999999999996 aaaad
r0.01505099999999997 aaaae
r0.01505099999999997 aaaah

#183500000000
0aaaaa

#184000000000
1aaaaa
r0.0001749999999999996 aaaad
r0.01522499999999997 aaaae
r0.01522499999999997 aaaah

#184500000000
0aaaaa

#185000000000
1aaaaa
r0.0001759999999999996 aaaad
r0.01539999999999997 aaaae
r0.01539999999999997 aaaah

#185500000000
0aaaaa

#186000000000
1aaaaa
r0.0001769999999999996 aaaad
r0.01557599999999997 aaaae
r0.01557599999999997 aaaah

#186500000000
0aaaaa

#187000000000
1aaaaa
r0.0001779999999999996 aaaad
r0.01575299999999997 aaaae
r0.01575299999999997 aaaah

#187500000000
0aaaaa

#188000000000
1aaaaa
r0.0001789999999999996 aaaad
r0.01593099999999997 aaaae
r0.01593099999999997 aaaah

#188500000000
0aaaaa

#189000000000
1aaaaa
r0.0001799999999999996 aaaad
r0.01610999999999997 aaaae
r0.01610999999999997 aaaah

#189500000000
0aaaaa

#190000000000
1aaaaa
r0.0001809999999999996 aaaad
r0.01628999999999997 aaaae
r0.01628999999999997 aaaah

#190500000000
0aaaaa

#191000000000
1aaaaa
r0.0001819999999999996 aaaad
r0.01647099999999997 aaaae
r0.01647099999999997 aaaah

#191500000000
0aaaaa

#192000000000
1aaaaa
r0.0001829999999999996 aaaad
r0.01665299999999997 aaaae
r0.01665299999999997 aaaah

#192500000000
0aaaaa

#193000000000
1aaaaa
r0.0001839999999999996 aaaad
r0.01683599999999997 aaaae
r0.01683599999999997 aaaah

#193500000000
0aaaaa

#194000000000
1aaaaa
r0.0001849999999999996 aaaad
r0.01701999999999997 aaaae
r0.01701999999999997 aaaah

#194500000000
0aaaaa

#195000000000
1aaaaa
r0.0001859999999999996 aaaad
r0.01720499999999997 aaaae
r0.01720499999999997 aaaah

#195500000000
0aaaaa

#196000000000
1aaaaa
r0.0001869999999999996 aaaad
r0.01739099999999997 aaaae
r0.01739099999999997 aaaah

#196500000000
0aaaaa

#197000000000
1aaaaa
r0.0001879999999999996 aaaad
r0.01757799999999997 aaaae
r0.01757799999999997 aaaah

#197500000000
0aaaaa

#198000000000
1aaaaa
r0.0001889999999999996 aaaad
r0.01776599999999997 aaaae
r0.01776599999999997 aaaah

#198500000000
0aaaaa

#199000000000
1aaaaa
r0.0001899999999999996 aaaad
r0.01795499999999996 aaaae
r0.01795499999999996 aaaah

#199500000000
0aaaaa

#200000000000
1aaaaa
r0.0001909999999999996 aaaad
r0.01814499999999996 aaaae
r0.01814499999999996 aaaah

#200500000000
0aaaaa

#201000000000
1aaaaa
r0.0001919999999999996 aaaad
r0.01833599999999996 aaaae
r0.01833599999999996 aaaah

#201500000000
0aaaaa

#202000000000
1aaaaa
r0.0001929999999999996 aaaad
r0.01852799999999996 aaaae
r0.01852799999999996 aaaah

#202500000000
0aaaaa

#203000000000
1aaaaa
r0.0001939999999999996 aaaad
r0.01872099999999996 aaaae
r0.01872099999999996 aaaah

#203500000000
0aaaaa

#204000000000
1aaaaa
r0.0001949999999999996 aaaad
r0.01891499999999996 aaaae
r0.01891499999999996 aaaah

#204500000000
0aaaaa

#205000000000
1aaaaa
r0.0001959999999999996 aaaad
r0.01910999999999996 aaaae
r0.01910999999999996 aaaah

#205500000000
0aaaaa

#206000000000
1aaaaa
r0.0001969999999999996 aaaad
r0.01930599999999996 aaaae
r0.01930599999999996 aaaah

#206500000000
0aaaaa

#207000000000
1aaaaa
r0.0001979999999999996 aaaad
r0.01950299999999996 aaaae
r0.01950299999999996 aaaah

#207500000000
0aaaaa

#208000000000
1aaaaa
r0.0001989999999999996 aaaad
r0.01970099999999996 aaaae
r0.01970099999999996 aaaah

#208500000000
0aaaaa

#209000000000
1aaaaa
r0.0001999999999999995 aaaad
r0.01989999999999996 aaaae
r0.01989999999999996 aaaah

#209500000000
0aaaaa

#210000000000
1aaaaa
r0.0002009999999999995 aaaad
r0.02009999999999996 aaaae
r0.02009999999999996 aaaah

#210500000000
0aaaaa

#211000000000
1aaaaa
r0.0002019999999999995 aaaad
r0.02030099999999996 aaaae
r0.02030099999999996 aaaah

#211500000000
0aaaaa

