random_signal_interpreter/mobileAndSensor.vcd
$date
     Feb 19, 2018       21:13:26
$end

$version
 SystemC 2.3.1-Accellera --- Jun  1 2014 14:49:19
$end

$timescale
     1 ps
$end

$scope module SystemC $end
$var wire    1  aaaaa  clock       $end
$var wire   32  aaaab  x [31:0]  $end
$var wire   32  aaaac  y [31:0]  $end
$var wire    1  aaaad  roi1       $end
$var wire    1  aaaae  roi2       $end
$var wire    1  aaaaf  roi3       $end
$var wire    1  aaaag  roi4       $end
$var wire    1  aaaah  roi5       $end
$var real    1  aaaai  t1       $end
$var real    1  aaaaj  t2       $end
$var real    1  aaaak  t3       $end
$var real    1  aaaal  t4       $end
$var real    1  aaaam  t5       $end
$upscope $end
$enddefinitions  $end

$comment
All initial values are dumped below at time 0 sec = 0 timescale units.
$end

$dumpvars
1aaaaa
b101010111 aaaab
b1100101101 aaaac
0aaaad
0aaaae
0aaaaf
0aaaag
0aaaah
r0 aaaai
r0 aaaaj
r0 aaaak
r0 aaaal
r0 aaaam
$end

#2000000000
0aaaaa

#4000000000
1aaaaa
b1000011010 aaaab
b1000101101 aaaac
1aaaae
1aaaaf
1aaaag
r0.004 aaaaj
r0.004 aaaak
r0.004 aaaal

#6000000000
0aaaaa

#8000000000
1aaaaa
b10000000 aaaab
b1011011111 aaaac
0aaaae
0aaaaf
r0.008 aaaal

#10000000000
0aaaaa

#12000000000
1aaaaa
b110100 aaaab
b111111010 aaaac
1aaaae
1aaaaf
r0.012 aaaal

#14000000000
0aaaaa

#16000000000
1aaaaa
b1111100001 aaaab
b111101011 aaaac
0aaaaf
0aaaag
r0.008 aaaaj

#18000000000
0aaaaa

#20000000000
1aaaaa
b1010111111 aaaab
b110000011 aaaac

#22000000000
0aaaaa

#24000000000
1aaaaa
b111110010 aaaab
b111011010 aaaac

#26000000000
0aaaaa

#28000000000
1aaaaa
b111010000 aaaab
b1001011111 aaaac

#30000000000
0aaaaa

#32000000000
1aaaaa
b1110000 aaaab
b1000111011 aaaac
0aaaae
1aaaaf
1aaaag
r0.004 aaaal

#34000000000
0aaaaa

#36000000000
1aaaaa
b1010010000 aaaab
b101111 aaaac
1aaaae
0aaaaf
r0.004 aaaaj
r0.008 aaaal

#38000000000
0aaaaa

#40000000000
1aaaaa
b110111 aaaab
b110011001 aaaac

#42000000000
0aaaaa

#44000000000
1aaaaa
b1111100 aaaab
b1010110110 aaaac

#46000000000
0aaaaa

#48000000000
1aaaaa
b110100 aaaab
b110000000 aaaac
1aaaaf
r0.008 aaaaj
r0.012 aaaal

#50000000000
0aaaaa

#52000000000
1aaaaa
b1111001010 aaaab
b100110000 aaaac

#54000000000
0aaaaa

#56000000000
1aaaaa
b1000110010 aaaab
b1101100011 aaaac

#58000000000
0aaaaa

#60000000000
1aaaaa
b1110100 aaaab
b1110001001 aaaac
0aaaae
0aaaaf
r0.016 aaaal

#62000000000
0aaaaa

#64000000000
1aaaaa
b1010010000 aaaab
b1010001110 aaaac
1aaaae
r0.004 aaaaj
r0.02 aaaal

#66000000000
0aaaaa

#68000000000
1aaaaa
b110110110 aaaab
b1100010001 aaaac
0aaaae
r0.024 aaaal

#70000000000
0aaaaa

#72000000000
1aaaaa
b101101101 aaaab
b111101010 aaaac
1aaaaf
r0.028 aaaal

#74000000000
0aaaaa

#76000000000
1aaaaa
b100001011 aaaab
b101001111 aaaac
1aaaae
0aaaaf
0aaaag

#78000000000
0aaaaa

#80000000000
1aaaaa
b1111010101 aaaab
b1111001011 aaaac

#82000000000
0aaaaa

#84000000000
1aaaaa
b1011010010 aaaab
b111000111 aaaac

#86000000000
0aaaaa

#88000000000
1aaaaa
b110100101 aaaab
b10100010 aaaac

#90000000000
0aaaaa

#92000000000
1aaaaa
b100111 aaaab
b1000010101 aaaac

#94000000000
0aaaaa

#96000000000
1aaaaa
b1011011101 aaaab
b1010110111 aaaac

#98000000000
0aaaaa

#100000000000
1aaaaa
b1001000100 aaaab
b1100010101 aaaac

#102000000000
0aaaaa

#104000000000
1aaaaa
b1010000 aaaab
b1011000001 aaaac
0aaaae
1aaaag
r0.004 aaaal

#106000000000
0aaaaa

#108000000000
1aaaaa
b111001011 aaaab
b10000100 aaaac
1aaaae
1aaaaf
r0.008 aaaal

#110000000000
0aaaaa

#112000000000
1aaaaa
b1000001 aaaab
b110010101 aaaac

#114000000000
0aaaaa

#116000000000
1aaaaa
b110110100 aaaab
b1001110011 aaaac

#118000000000
0aaaaa

#120000000000
1aaaaa
b11111000 aaaab
b1000101001 aaaac
0aaaae
r0.008 aaaak
r0.012 aaaal

#122000000000
0aaaaa

#124000000000
1aaaaa
b111111100 aaaab
b1110001000 aaaac
1aaaae
0aaaaf
r0.016 aaaal

#126000000000
0aaaaa

#128000000000
1aaaaa
b10110111 aaaab
b1110110010 aaaac
0aaaae
r0.02 aaaal

#130000000000
0aaaaa

#132000000000
1aaaaa
b1010011001 aaaab
b1000100101 aaaac
1aaaae
r0.024 aaaal

#134000000000
0aaaaa

#136000000000
1aaaaa
b110011100 aaaab
b1110100101 aaaac

#138000000000
0aaaaa

#140000000000
1aaaaa
b1101110100 aaaab
b101110010 aaaac
0aaaae
r0.028 aaaal

#142000000000
0aaaaa

#144000000000
1aaaaa
b1101110000 aaaab
b1001000110 aaaac

#146000000000
0aaaaa

#148000000000
1aaaaa
b1100111001 aaaab
b100010101 aaaac

#150000000000
0aaaaa

#152000000000
1aaaaa
b1011101000 aaaab
b1101100000 aaaac

#154000000000
0aaaaa

#156000000000
1aaaaa
b1100101011 aaaab
b111000110 aaaac

#158000000000
0aaaaa

#160000000000
1aaaaa
b1000011000 aaaab
b101101111 aaaac

#162000000000
0aaaaa

#164000000000
1aaaaa
b11011011 aaaab
b1001101000 aaaac

#166000000000
0aaaaa

#168000000000
1aaaaa
b110000 aaaab
b1010100110 aaaac
1aaaae
1aaaaf
r0.004 aaaak
r0.032 aaaal

#170000000000
0aaaaa

#172000000000
1aaaaa
b1011101101 aaaab
b1110010 aaaac
0aaaae
r0.008 aaaak
r0.036 aaaal

#174000000000
0aaaaa

#176000000000
1aaaaa
b111011 aaaab
b10100001 aaaac

#178000000000
0aaaaa

#180000000000
1aaaaa
b1011100101 aaaab
b100110011 aaaac

#182000000000
0aaaaa

#184000000000
1aaaaa
b1011001010 aaaab
b11100010 aaaac

#186000000000
0aaaaa

#188000000000
1aaaaa
b10111011 aaaab
b1110000010 aaaac

#190000000000
0aaaaa

#192000000000
1aaaaa
b10010100 aaaab
b1101010101 aaaac
1aaaae
r0.012 aaaak
r0.04 aaaal

#194000000000
0aaaaa

#196000000000
1aaaaa
b110100111 aaaab
b1000110001 aaaac
r0.008 aaaaj
r0.016 aaaak
r0.044 aaaal

#198000000000
0aaaaa

#200000000000
1aaaaa
b1011111010 aaaab
b100011011 aaaac
0aaaae
0aaaaf
r0.048 aaaal

#202000000000
0aaaaa

#204000000000
1aaaaa
b1110100011 aaaab
b1001101010 aaaac

#206000000000
0aaaaa

#208000000000
1aaaaa
b1101100001 aaaab
b1011011100 aaaac

#210000000000
0aaaaa

#212000000000
1aaaaa
b1101111111 aaaab
b1001001001 aaaac

#214000000000
0aaaaa

#216000000000
1aaaaa
b1000111101 aaaab
b1010101010 aaaac

#218000000000
0aaaaa

#220000000000
1aaaaa
b1111 aaaab
b1010101 aaaac
r0.052 aaaal

#222000000000
0aaaaa

#224000000000
1aaaaa
b11010 aaaab
b11101010 aaaac

#226000000000
0aaaaa

#228000000000
1aaaaa
b1010111101 aaaab
b1001010 aaaac

#230000000000
0aaaaa

#232000000000
1aaaaa
b1110010000 aaaab
b110101010 aaaac

#234000000000
0aaaaa

#236000000000
1aaaaa
b10111100 aaaab
b1111001011 aaaac

#238000000000
0aaaaa

#240000000000
1aaaaa
b1001001100 aaaab
b1110100010 aaaac
1aaaae
0aaaag
r0.004 aaaaj

#242000000000
0aaaaa

#244000000000
1aaaaa
b11111110 aaaab
b100010110 aaaac
0aaaae
1aaaag
r0.004 aaaal

#246000000000
0aaaaa

#248000000000
1aaaaa
b10000100 aaaab
b110111010 aaaac

#250000000000
0aaaaa

#252000000000
1aaaaa
b10011000 aaaab
b100011000 aaaac

#254000000000
0aaaaa

#256000000000
1aaaaa
b100001111 aaaab
b1000111111 aaaac

#258000000000
0aaaaa

#260000000000
1aaaaa
b1101001001 aaaab
b1001 aaaac
1aaaae
r0.008 aaaal

#262000000000
0aaaaa

#264000000000
1aaaaa
b1101011010 aaaab
b1011101100 aaaac

#266000000000
0aaaaa

#268000000000
1aaaaa
b1001110011 aaaab
b1010111011 aaaac

#270000000000
0aaaaa

#272000000000
1aaaaa
b111001001 aaaab
b111110010 aaaac
0aaaae
r0.012 aaaal

#274000000000
0aaaaa

#276000000000
1aaaaa
b100000101 aaaab
b110 aaaac

#278000000000
0aaaaa

#280000000000
1aaaaa
b10011101 aaaab
b100010100 aaaac

#282000000000
0aaaaa

#284000000000
1aaaaa
b1011011 aaaab
b10110111 aaaac

#286000000000
0aaaaa

#288000000000
1aaaaa
b111111111 aaaab
b1100011000 aaaac

#290000000000
0aaaaa

#292000000000
1aaaaa
b100000001 aaaab
b110001111 aaaac
r0.016 aaaal

#294000000000
0aaaaa

#296000000000
1aaaaa
b11000011 aaaab
b110111110 aaaac

#298000000000
0aaaaa

#300000000000
1aaaaa
b101011011 aaaab
b1100001111 aaaac

#302000000000
0aaaaa

#304000000000
1aaaaa
b101100000 aaaab
b1001011001 aaaac
1aaaae
1aaaaf
r0.004 aaaak
r0.02 aaaal

#306000000000
0aaaaa

#308000000000
1aaaaa
b100101 aaaab
b111100100 aaaac
r0.008 aaaaj
r0.008 aaaak
r0.024 aaaal

#310000000000
0aaaaa

#312000000000
1aaaaa
b10011 aaaab
b10111110 aaaac

#314000000000
0aaaaa

#316000000000
1aaaaa
b1011111100 aaaab
b100100010 aaaac

#318000000000
0aaaaa

#320000000000
1aaaaa
b1011111101 aaaab
b1001000110 aaaac

#322000000000
0aaaaa

#324000000000
1aaaaa
b100101011 aaaab
b1001011000 aaaac

#326000000000
0aaaaa

#328000000000
1aaaaa
b100110010 aaaab
b1110011110 aaaac
r0.012 aaaaj
r0.012 aaaak
r0.028 aaaal

#330000000000
0aaaaa

#332000000000
1aaaaa
b100010011 aaaab
b1011111011 aaaac
0aaaaf
r0.016 aaaaj
r0.032 aaaal

#334000000000
0aaaaa

#336000000000
1aaaaa
b110010001 aaaab
b1000011000 aaaac
1aaaaf
r0.02 aaaaj
r0.004 aaaak
r0.036 aaaal

#338000000000
0aaaaa

#340000000000
1aaaaa
b1100000001 aaaab
b1000101110 aaaac

#342000000000
0aaaaa

#344000000000
1aaaaa
b1100101101 aaaab
b1101011100 aaaac

#346000000000
0aaaaa

#348000000000
1aaaaa
b1011100101 aaaab
b100101100 aaaac

#350000000000
0aaaaa

#352000000000
1aaaaa
b1001110101 aaaab
b1111100110 aaaac

#354000000000
0aaaaa

#356000000000
1aaaaa
b1010111011 aaaab
b1100111000 aaaac

#358000000000
0aaaaa

#360000000000
1aaaaa
b110100100 aaaab
b10110 aaaac

#362000000000
0aaaaa

#364000000000
1aaaaa
b1001000111 aaaab
b1100000100 aaaac

#366000000000
0aaaaa

#368000000000
1aaaaa
b1001110000 aaaab
b1001101100 aaaac
0aaaae
0aaaaf
r0.04 aaaal

#370000000000
0aaaaa

#372000000000
1aaaaa
b11101000 aaaab
b1010000011 aaaac
r0.044 aaaal

#374000000000
0aaaaa

#376000000000
1aaaaa
b1100101010 aaaab
b1111100101 aaaac
1aaaae
1aaaaf
r0.004 aaaaj
r0.048 aaaal

#378000000000
0aaaaa

#380000000000
1aaaaa
b1110100110 aaaab
b1000101000 aaaac

#382000000000
0aaaaa

#384000000000
1aaaaa
b1000101011 aaaab
b11010001 aaaac

#386000000000
0aaaaa

#388000000000
1aaaaa
b10000000 aaaab
b1101011101 aaaac

#390000000000
0aaaaa

#392000000000
1aaaaa
b1110000 aaaab
b110010011 aaaac
r0.008 aaaaj
r0.008 aaaak
r0.052 aaaal

#394000000000
0aaaaa

#396000000000
1aaaaa
b1001011001 aaaab
b1000000001 aaaac

#398000000000
0aaaaa

#400000000000
1aaaaa
b1110101100 aaaab
b101011010 aaaac

#402000000000
0aaaaa

#404000000000
1aaaaa
b101111 aaaab
b1011011001 aaaac

#406000000000
0aaaaa

#408000000000
1aaaaa
b10110111 aaaab
b1100010100 aaaac
0aaaae
r0.012 aaaak
r0.056 aaaal

#410000000000
0aaaaa

#412000000000
1aaaaa
b101 aaaab
b1100101100 aaaac
1aaaae
r0.004 aaaaj
r0.016 aaaak
r0.06 aaaal

#414000000000
0aaaaa

#416000000000
1aaaaa
b1011111010 aaaab
b1011000000 aaaac

#418000000000
0aaaaa

#420000000000
1aaaaa
b1001100100 aaaab
b10011111 aaaac

#422000000000
0aaaaa

#424000000000
1aaaaa
b1011010111 aaaab
b10101011 aaaac

#426000000000
0aaaaa

#428000000000
1aaaaa
b1110100011 aaaab
b101000111 aaaac

#430000000000
0aaaaa

#432000000000
1aaaaa
b1100010111 aaaab
b10001100 aaaac

#434000000000
0aaaaa

#436000000000
1aaaaa
b1111001010 aaaab
b1001000010 aaaac

#438000000000
0aaaaa

#440000000000
1aaaaa
b1110001 aaaab
b1101110000 aaaac

#442000000000
0aaaaa

#444000000000
1aaaaa
b1101010 aaaab
b1010011100 aaaac
r0.008 aaaaj
r0.02 aaaak
r0.064 aaaal

#446000000000
0aaaaa

#448000000000
1aaaaa
b1000010 aaaab
b11101010 aaaac
r0.012 aaaaj
r0.024 aaaak
r0.068 aaaal

#450000000000
0aaaaa

#452000000000
1aaaaa
b111111001 aaaab
b10110010 aaaac

#454000000000
0aaaaa

#456000000000
1aaaaa
b1001111101 aaaab
b1010010 aaaac

#458000000000
0aaaaa

#460000000000
1aaaaa
b1010110011 aaaab
b1000101001 aaaac

#462000000000
0aaaaa

#464000000000
1aaaaa
b110101101 aaaab
b1011100010 aaaac

#466000000000
0aaaaa

#468000000000
1aaaaa
b100000010 aaaab
b1001100100 aaaac
0aaaae
r0.028 aaaak
r0.07200000000000001 aaaal

#470000000000
0aaaaa

#472000000000
1aaaaa
b111110110 aaaab
b100000111 aaaac
1aaaae
r0.004 aaaaj
r0.032 aaaak
r0.076 aaaal

#474000000000
0aaaaa

#476000000000
1aaaaa
b110010000 aaaab
b11110000 aaaac

#478000000000
0aaaaa

#480000000000
1aaaaa
b1111001000 aaaab
b1111110100 aaaac

#482000000000
0aaaaa

#484000000000
1aaaaa
b110001111 aaaab
b1010011111 aaaac

#486000000000
0aaaaa

#488000000000
1aaaaa
b10011111 aaaab
b100110011 aaaac
0aaaae
r0.036 aaaak
r0.08 aaaal

#490000000000
0aaaaa

#492000000000
1aaaaa
b1111100110 aaaab
b1110110110 aaaac

#494000000000
0aaaaa

#496000000000
1aaaaa
b110111111 aaaab
b1110110000 aaaac

#498000000000
0aaaaa

#500000000000
1aaaaa
b111111000 aaaab
b1000110000 aaaac
0aaaaf
r0.08400000000000001 aaaal

#502000000000
0aaaaa

#504000000000
1aaaaa
b1100100001 aaaab
b1001100010 aaaac
r0.08799999999999999 aaaal

#506000000000
0aaaaa

#508000000000
1aaaaa
b11001100 aaaab
b1101100011 aaaac

#510000000000
0aaaaa

#512000000000
1aaaaa
b1101001100 aaaab
b1011000101 aaaac
1aaaae
1aaaaf
r0.004 aaaak
r0.092 aaaal

#514000000000
0aaaaa

#516000000000
1aaaaa
b10101 aaaab
b111001010 aaaac

#518000000000
0aaaaa

#520000000000
1aaaaa
b1100011000 aaaab
b1011001000 aaaac

#522000000000
0aaaaa

#524000000000
1aaaaa
b1111110011 aaaab
b11000101 aaaac

#526000000000
0aaaaa

#528000000000
1aaaaa
b110101010 aaaab
b11110110 aaaac

#530000000000
0aaaaa

#532000000000
1aaaaa
b1100101001 aaaab
b1110100000 aaaac

#534000000000
0aaaaa

#536000000000
1aaaaa
b111111101 aaaab
b10111001 aaaac

#538000000000
0aaaaa

#540000000000
1aaaaa
b10010000 aaaab
b111000101 aaaac

#542000000000
0aaaaa

#544000000000
1aaaaa
b10101101 aaaab
b1000100000 aaaac
0aaaaf
0aaaag
r0.008 aaaaj

#546000000000
0aaaaa

#548000000000
1aaaaa
b1100100 aaaab
b101001100 aaaac
r0.012 aaaaj

#550000000000
0aaaaa

#552000000000
1aaaaa
b1101010011 aaaab
b1001010 aaaac

#554000000000
0aaaaa

#556000000000
1aaaaa
b100000010 aaaab
b100010010 aaaac

#558000000000
0aaaaa

#560000000000
1aaaaa
b1111111011 aaaab
b1011111011 aaaac

#562000000000
0aaaaa

#564000000000
1aaaaa
b1101000010 aaaab
b1100011100 aaaac

#566000000000
0aaaaa

#568000000000
1aaaaa
b101011101 aaaab
b1110 aaaac

#570000000000
0aaaaa

#572000000000
1aaaaa
b1001111111 aaaab
b10101010 aaaac

#574000000000
0aaaaa

#576000000000
1aaaaa
b1011010011 aaaab
b1010010100 aaaac

#578000000000
0aaaaa

#580000000000
1aaaaa
b1001110100 aaaab
b111101011 aaaac

#582000000000
0aaaaa

#584000000000
1aaaaa
b101011100 aaaab
b1001100111 aaaac

#586000000000
0aaaaa

#588000000000
1aaaaa
b1010110000 aaaab
b1100000110 aaaac
1aaaaf
1aaaag
r0.016 aaaaj
r0.004 aaaal

#590000000000
0aaaaa

#592000000000
1aaaaa
b1101011101 aaaab
b111011001 aaaac

#594000000000
0aaaaa

#596000000000
1aaaaa
b1010100110 aaaab
b101011011 aaaac

#598000000000
0aaaaa

#600000000000
1aaaaa
b1010010010 aaaab
b1100110110 aaaac

#602000000000
0aaaaa

#604000000000
1aaaaa
b1100100000 aaaab
b1100111111 aaaac
0aaaae
0aaaaf
r0.008 aaaal

#606000000000
0aaaaa

#608000000000
1aaaaa
b101010110 aaaab
b1110000101 aaaac

#610000000000
0aaaaa

#612000000000
1aaaaa
b10001011 aaaab
b10101001 aaaac
1aaaae
r0.004 aaaaj
r0.012 aaaal

#614000000000
0aaaaa

#616000000000
1aaaaa
b1111001111 aaaab
b110001110 aaaac

#618000000000
0aaaaa

#620000000000
1aaaaa
b110111011 aaaab
b1111001010 aaaac

#622000000000
0aaaaa

#624000000000
1aaaaa
b10001001 aaaab
b11111101 aaaac

#626000000000
0aaaaa

#628000000000
1aaaaa
b1011100110 aaaab
b111100110 aaaac

#630000000000
0aaaaa

#632000000000
1aaaaa
b100001011 aaaab
b101100101 aaaac

#634000000000
0aaaaa

#636000000000
1aaaaa
b1010010000 aaaab
b1111011111 aaaac

#638000000000
0aaaaa

#640000000000
1aaaaa
b1111111001 aaaab
b100000100 aaaac

#642000000000
0aaaaa

#644000000000
1aaaaa
b111001010 aaaab
b101010101 aaaac

#646000000000
0aaaaa

#648000000000
1aaaaa
b1101101100 aaaab
b1111011 aaaac

#650000000000
0aaaaa

#652000000000
1aaaaa
b1011011 aaaab
b1011001001 aaaac

#654000000000
0aaaaa

#656000000000
1aaaaa
b1001010100 aaaab
b1100000001 aaaac
1aaaaf
r0.008 aaaaj
r0.016 aaaal

#658000000000
0aaaaa

#660000000000
1aaaaa
b100100 aaaab
b11100111 aaaac
0aaaae
0aaaaf
r0.02 aaaal

#662000000000
0aaaaa

#664000000000
1aaaaa
b1000111000 aaaab
b1101000101 aaaac

#666000000000
0aaaaa

#668000000000
1aaaaa
b100110 aaaab
b1110001110 aaaac
r0.024 aaaal

#670000000000
0aaaaa

#672000000000
1aaaaa
b1011001010 aaaab
b10110010 aaaac

#674000000000
0aaaaa

#676000000000
1aaaaa
b111000 aaaab
b1010011001 aaaac

#678000000000
0aaaaa

#680000000000
1aaaaa
b1001000000 aaaab
b111110011 aaaac
1aaaae
1aaaaf
r0.004 aaaaj
r0.028 aaaal

#682000000000
0aaaaa

#684000000000
1aaaaa
b1001100100 aaaab
b1011001001 aaaac

#686000000000
0aaaaa

#688000000000
1aaaaa
b1011110001 aaaab
b101001010 aaaac
0aaaae
0aaaaf
r0.032 aaaal

#690000000000
0aaaaa

#692000000000
1aaaaa
b10101111 aaaab
b1111111100 aaaac

#694000000000
0aaaaa

#696000000000
1aaaaa
b1010110000 aaaab
b1101000000 aaaac

#698000000000
0aaaaa

#700000000000
1aaaaa
b1111011011 aaaab
b1010101001 aaaac

#702000000000
0aaaaa

#704000000000
1aaaaa
b1000100 aaaab
b110100110 aaaac

#706000000000
0aaaaa

#708000000000
1aaaaa
b1111111111 aaaab
b1110110000 aaaac

#710000000000
0aaaaa

#712000000000
1aaaaa
b1000100001 aaaab
b1011010 aaaac

#714000000000
0aaaaa

#716000000000
1aaaaa
b1001111010 aaaab
b1110101 aaaac

#718000000000
0aaaaa

#720000000000
1aaaaa
b1101011100 aaaab
b1010011110 aaaac

#722000000000
0aaaaa

#724000000000
1aaaaa
b101011100 aaaab
b110010100 aaaac

#726000000000
0aaaaa

#728000000000
1aaaaa
b111100011 aaaab
b110000011 aaaac

#730000000000
0aaaaa

#732000000000
1aaaaa
b100100010 aaaab
b10101101 aaaac

#734000000000
0aaaaa

#736000000000
1aaaaa
b1000110101 aaaab
b101011010 aaaac

#738000000000
0aaaaa

#740000000000
1aaaaa
b1101000111 aaaab
b1110101 aaaac

#742000000000
0aaaaa

#744000000000
1aaaaa
b1101001110 aaaab
b110101011 aaaac

#746000000000
0aaaaa

#748000000000
1aaaaa
b1100111110 aaaab
b1000111111 aaaac

#750000000000
0aaaaa

#752000000000
1aaaaa
b1011110101 aaaab
b1111101101 aaaac

#754000000000
0aaaaa

#756000000000
1aaaaa
b1000111011 aaaab
b110100101 aaaac

#758000000000
0aaaaa

#760000000000
1aaaaa
b1100101101 aaaab
b1000010111 aaaac

#762000000000
0aaaaa

#764000000000
1aaaaa
b1001111 aaaab
b1101110010 aaaac

#766000000000
0aaaaa

#768000000000
1aaaaa
b1110111101 aaaab
b1001110 aaaac
1aaaae
1aaaaf
r0.036 aaaal

#770000000000
0aaaaa

#772000000000
1aaaaa
b1100100010 aaaab
b111011110 aaaac

#774000000000
0aaaaa

#776000000000
1aaaaa
b10101000 aaaab
b110011100 aaaac

#778000000000
0aaaaa

#780000000000
1aaaaa
b1001010011 aaaab
b100 aaaac

#782000000000
0aaaaa

#784000000000
1aaaaa
b111011 aaaab
b1110110000 aaaac

#786000000000
0aaaaa

#788000000000
1aaaaa
b110011000 aaaab
b1000011110 aaaac
0aaaaf
r0.008 aaaaj
r0.04 aaaal

#790000000000
0aaaaa

#792000000000
1aaaaa
b100110011 aaaab
b1010111011 aaaac

#794000000000
0aaaaa

#796000000000
1aaaaa
b1011001100 aaaab
b1101101000 aaaac
1aaaaf
r0.012 aaaaj
r0.044 aaaal

#798000000000
0aaaaa

#800000000000
1aaaaa
b10101 aaaab
b1000010011 aaaac

#802000000000
0aaaaa

#804000000000
1aaaaa
b1111011101 aaaab
b1101100011 aaaac

#806000000000
0aaaaa

#808000000000
1aaaaa
b1110111110 aaaab
b1100011011 aaaac

#810000000000
0aaaaa

#812000000000
1aaaaa
b110100010 aaaab
b1010110011 aaaac

#814000000000
0aaaaa

#816000000000
1aaaaa
b1100001000 aaaab
b1111011110 aaaac
0aaaae
r0.008 aaaak
r0.048 aaaal

#818000000000
0aaaaa

#820000000000
1aaaaa
b1011001 aaaab
b1000110110 aaaac

#822000000000
0aaaaa

#824000000000
1aaaaa
b111110101 aaaab
b10101000 aaaac
1aaaae
0aaaaf
r0.004 aaaaj
r0.052 aaaal

#826000000000
0aaaaa

#828000000000
1aaaaa
b110101000 aaaab
b110110010 aaaac

#830000000000
0aaaaa

#832000000000
1aaaaa
b11110110 aaaab
b11001010 aaaac

#834000000000
0aaaaa

#836000000000
1aaaaa
b1110010000 aaaab
b110011110 aaaac

#838000000000
0aaaaa

#840000000000
1aaaaa
b1001100111 aaaab
b111100011 aaaac

#842000000000
0aaaaa

#844000000000
1aaaaa
b110100011 aaaab
b1010100010 aaaac

#846000000000
0aaaaa

#848000000000
1aaaaa
b110010011 aaaab
b1100111011 aaaac
0aaaae
1aaaaf
r0.004 aaaak
r0.056 aaaal

#850000000000
0aaaaa

#852000000000
1aaaaa
b11000000 aaaab
b1011000110 aaaac
r0.008 aaaak
r0.06 aaaal

#854000000000
0aaaaa

#856000000000
1aaaaa
b111110110 aaaab
b1110001100 aaaac
1aaaae
r0.012 aaaak
r0.064 aaaal

#858000000000
0aaaaa

#860000000000
1aaaaa
b1000101110 aaaab
b1000001100 aaaac
0aaaae
0aaaaf
r0.068 aaaal

#862000000000
0aaaaa

#864000000000
1aaaaa
b110011111 aaaab
b1000001011 aaaac

#866000000000
0aaaaa

#868000000000
1aaaaa
b101101111 aaaab
b101011101 aaaac

#870000000000
0aaaaa

#872000000000
1aaaaa
b100100110 aaaab
b1100010010 aaaac

#874000000000
0aaaaa

#876000000000
1aaaaa
b10001 aaaab
b101111 aaaac
1aaaae
1aaaaf
r0.004 aaaak
r0.07200000000000001 aaaal

#878000000000
0aaaaa

#880000000000
1aaaaa
b1011110000 aaaab
b1101010 aaaac

#882000000000
0aaaaa

#884000000000
1aaaaa
b1001100101 aaaab
b11100101 aaaac

#886000000000
0aaaaa

#888000000000
1aaaaa
b100010010 aaaab
b1101 aaaac

#890000000000
0aaaaa

#892000000000
1aaaaa
b1010010111 aaaab
b1000001000 aaaac

#894000000000
0aaaaa

#896000000000
1aaaaa
b11010111 aaaab
b1000100111 aaaac

#898000000000
0aaaaa

#900000000000
1aaaaa
b1110100110 aaaab
b1100111110 aaaac
0aaaaf
r0.008 aaaaj
r0.076 aaaal

#902000000000
0aaaaa

#904000000000
1aaaaa
b1010 aaaab
b101001001 aaaac

#906000000000
0aaaaa

#908000000000
1aaaaa
b111100000 aaaab
b110011110 aaaac

#910000000000
0aaaaa

#912000000000
1aaaaa
b10000101 aaaab
b1010100001 aaaac

#914000000000
0aaaaa

#916000000000
1aaaaa
b1100100 aaaab
b1001111011 aaaac
1aaaaf
r0.012 aaaaj
r0.08 aaaal

#918000000000
0aaaaa

#920000000000
1aaaaa
b1000101101 aaaab
b1010010011 aaaac
r0.016 aaaaj
r0.008 aaaak
r0.08400000000000001 aaaal

#922000000000
0aaaaa

#924000000000
1aaaaa
b10000111 aaaab
b1111001101 aaaac
0aaaae
0aaaaf
r0.08799999999999999 aaaal

#926000000000
0aaaaa

#928000000000
1aaaaa
b10011110 aaaab
b111110111 aaaac
1aaaae
0aaaag
r0.004 aaaaj

#930000000000
0aaaaa

#932000000000
1aaaaa
b100101010 aaaab
b111000101 aaaac
r0.008 aaaaj

#934000000000
0aaaaa

#936000000000
1aaaaa
b100001001 aaaab
b100111011 aaaac
r0.012 aaaaj

#938000000000
0aaaaa

#940000000000
1aaaaa
b111110100 aaaab
b1111111001 aaaac

#942000000000
0aaaaa

#944000000000
1aaaaa
b110100101 aaaab
b1011001 aaaac

#946000000000
0aaaaa

#948000000000
1aaaaa
b11011110 aaaab
b1010110111 aaaac

#950000000000
0aaaaa

#952000000000
1aaaaa
b1100110 aaaab
b1101110101 aaaac
1aaaaf
1aaaag
r0.016 aaaaj
r0.004 aaaak
r0.004 aaaal

#954000000000
0aaaaa

#956000000000
1aaaaa
b10111111 aaaab
b100111101 aaaac
r0.02 aaaaj
r0.008 aaaak
r0.008 aaaal

#958000000000
0aaaaa

#960000000000
1aaaaa
b110011100 aaaab
b1100110 aaaac

#962000000000
0aaaaa

#964000000000
1aaaaa
b1111100 aaaab
b110100110 aaaac

#966000000000
0aaaaa

#968000000000
1aaaaa
b110101111 aaaab
b1001011100 aaaac

#970000000000
0aaaaa

#972000000000
1aaaaa
b1101000100 aaaab
b1000110100 aaaac
0aaaae
r0.012 aaaak
r0.012 aaaal

#974000000000
0aaaaa

#976000000000
1aaaaa
b11111101 aaaab
b1110101001 aaaac

#978000000000
0aaaaa

#980000000000
1aaaaa
b10110000 aaaab
b1100101011 aaaac
1aaaae
0aaaaf
r0.004 aaaaj
r0.016 aaaal

#982000000000
0aaaaa

#984000000000
1aaaaa
b1000111100 aaaab
b100110111 aaaac
1aaaaf
r0.008 aaaaj
r0.004 aaaak
r0.02 aaaal

#986000000000
0aaaaa

#988000000000
1aaaaa
b1011111000 aaaab
b1011011010 aaaac

#990000000000
0aaaaa

#992000000000
1aaaaa
b1100101110 aaaab
b100010 aaaac

#994000000000
0aaaaa

#996000000000
1aaaaa
b10011111 aaaab
b110111 aaaac

#998000000000
0aaaaa

#1000000000000
1aaaaa
b101011110 aaaab
b1010010011 aaaac

#1002000000000
0aaaaa

#1004000000000
1aaaaa
b110000 aaaab
b1100000011 aaaac
r0.012 aaaaj
r0.008 aaaak
r0.024 aaaal

#1006000000000
0aaaaa

#1008000000000
1aaaaa
b1011101100 aaaab
b100001110 aaaac
0aaaae
r0.012 aaaak
r0.028 aaaal

#1010000000000
0aaaaa

#1012000000000
1aaaaa
b110111011 aaaab
b1101010010 aaaac

#1014000000000
0aaaaa

#1016000000000
1aaaaa
b10000011 aaaab
b1001111010 aaaac
r0.016 aaaak
r0.032 aaaal

#1018000000000
0aaaaa

#1020000000000
1aaaaa
b10010000 aaaab
b1000011111 aaaac
1aaaae
r0.004 aaaaj
r0.02 aaaak
r0.036 aaaal

#1022000000000
0aaaaa

#1024000000000
1aaaaa
b1011100000 aaaab
b100001100 aaaac
0aaaaf
0aaaag
r0.008 aaaaj

#1026000000000
0aaaaa

#1028000000000
1aaaaa
b1111000110 aaaab
b10010000 aaaac

#1030000000000
0aaaaa

#1032000000000
1aaaaa
b1101101000 aaaab
b1100001010 aaaac

#1034000000000
0aaaaa

#1036000000000
1aaaaa
b1011000100 aaaab
b1100110 aaaac

#1038000000000
0aaaaa

#1040000000000
1aaaaa
b1010110011 aaaab
b1101110100 aaaac

#1042000000000
0aaaaa

