final_mobile/mobile.vcd
$date
     Feb 19, 2018       21:22:27
$end

$version
 SystemC 2.3.1-Accellera --- Jun  1 2014 14:49:19
$end

$timescale
     1 ps
$end

$scope module SystemC $end
$var wire    1  aaaaa  clock       $end
$var wire   32  aaaab  x [31:0]  $end
$var wire   32  aaaac  y [31:0]  $end
$var wire    1  aaaad  roi1       $end
$var wire    1  aaaae  roi2       $end
$var wire    1  aaaaf  roi3       $end
$var wire    1  aaaag  roi4       $end
$var wire    1  aaaah  roi5       $end
$var real    1  aaaai  t1       $end
$var real    1  aaaaj  t2       $end
$var real    1  aaaak  t3       $end
$var real    1  aaaal  t4       $end
$var real    1  aaaam  t5       $end
$upscope $end
$enddefinitions  $end

$comment
All initial values are dumped below at time 0 sec = 0 timescale units.
$end

$dumpvars
1aaaaa
b0 aaaab
b0 aaaac
0aaaad
0aaaae
0aaaaf
0aaaag
0aaaah
r0 aaaai
r0 aaaaj
r0 aaaak
r0 aaaal
r0 aaaam
$end

#1000000000
b11001000 aaaab
b1010111100 aaaac

#2000000000
0aaaaa

#4000000000
1aaaaa
1aaaae
1aaaaf
1aaaag
r0.004 aaaaj
r0.004 aaaak
r0.004 aaaal

#6000000000
0aaaaa

#8000000000
1aaaaa
r0.008 aaaaj
r0.008 aaaak
r0.008 aaaal

#10000000000
0aaaaa

#12000000000
1aaaaa
r0.012 aaaaj
r0.012 aaaak
r0.012 aaaal

#14000000000
0aaaaa

#16000000000
1aaaaa
r0.016 aaaaj
r0.016 aaaak
r0.016 aaaal

#18000000000
0aaaaa

#20000000000
1aaaaa
r0.02 aaaaj
r0.02 aaaak
r0.02 aaaal

#22000000000
0aaaaa

#24000000000
1aaaaa
r0.024 aaaaj
r0.024 aaaak
r0.024 aaaal

#26000000000
0aaaaa

#28000000000
1aaaaa
r0.028 aaaaj
r0.028 aaaak
r0.028 aaaal

#30000000000
0aaaaa

#32000000000
1aaaaa
r0.032 aaaaj
r0.032 aaaak
r0.032 aaaal

#34000000000
0aaaaa

#36000000000
1aaaaa
r0.036 aaaaj
r0.036 aaaak
r0.036 aaaal

#38000000000
0aaaaa

#40000000000
1aaaaa
r0.04 aaaaj
r0.04 aaaak
r0.04 aaaal

#42000000000
0aaaaa

#44000000000
1aaaaa
r0.044 aaaaj
r0.044 aaaak
r0.044 aaaal

#46000000000
0aaaaa

#48000000000
1aaaaa
r0.048 aaaaj
r0.048 aaaak
r0.048 aaaal

#50000000000
0aaaaa

#52000000000
1aaaaa
r0.052 aaaaj
r0.052 aaaak
r0.052 aaaal

#54000000000
0aaaaa

#56000000000
1aaaaa
r0.056 aaaaj
r0.056 aaaak
r0.056 aaaal

#58000000000
0aaaaa

#60000000000
1aaaaa
r0.06 aaaaj
r0.06 aaaak
r0.06 aaaal

#62000000000
0aaaaa

#64000000000
1aaaaa
r0.064 aaaaj
r0.064 aaaak
r0.064 aaaal

#66000000000
0aaaaa

#68000000000
1aaaaa
r0.068 aaaaj
r0.068 aaaak
r0.068 aaaal

#70000000000
0aaaaa

#72000000000
1aaaaa
r0.07200000000000001 aaaaj
r0.07200000000000001 aaaak
r0.07200000000000001 aaaal

#74000000000
0aaaaa

#76000000000
1aaaaa
r0.076 aaaaj
r0.076 aaaak
r0.076 aaaal

#78000000000
0aaaaa

#80000000000
1aaaaa
r0.08 aaaaj
r0.08 aaaak
r0.08 aaaal

#82000000000
0aaaaa

#84000000000
1aaaaa
r0.08400000000000001 aaaaj
r0.08400000000000001 aaaak
r0.08400000000000001 aaaal

#86000000000
0aaaaa

#88000000000
1aaaaa
r0.08799999999999999 aaaaj
r0.08799999999999999 aaaak
r0.08799999999999999 aaaal

#90000000000
0aaaaa

#92000000000
1aaaaa
r0.092 aaaaj
r0.092 aaaak
r0.092 aaaal

#94000000000
0aaaaa

#96000000000
1aaaaa
r0.096 aaaaj
r0.096 aaaak
r0.096 aaaal

#98000000000
0aaaaa

#100000000000
1aaaaa
r0.1 aaaaj
r0.1 aaaak
r0.1 aaaal

#101000000000
b11110 aaaab
b101000000 aaaac

#102000000000
0aaaaa

#104000000000
1aaaaa
1aaaad
0aaaae
0aaaaf
0aaaag
r0.004 aaaai

#106000000000
0aaaaa

#108000000000
1aaaaa
r0.008 aaaai

#110000000000
0aaaaa

#112000000000
1aaaaa
r0.012 aaaai

#114000000000
0aaaaa

#116000000000
1aaaaa
r0.016 aaaai

#118000000000
0aaaaa

#120000000000
1aaaaa
r0.02 aaaai

#122000000000
0aaaaa

#124000000000
1aaaaa
r0.024 aaaai

#126000000000
0aaaaa

#128000000000
1aaaaa
r0.028 aaaai

#130000000000
0aaaaa

#132000000000
1aaaaa
r0.032 aaaai

#134000000000
0aaaaa

#136000000000
1aaaaa
r0.036 aaaai

#138000000000
0aaaaa

#140000000000
1aaaaa
r0.04 aaaai

#142000000000
0aaaaa

#144000000000
1aaaaa
r0.044 aaaai

#146000000000
0aaaaa

#148000000000
1aaaaa
r0.048 aaaai

#150000000000
0aaaaa

#152000000000
1aaaaa
r0.052 aaaai

#154000000000
0aaaaa

#156000000000
1aaaaa
r0.056 aaaai

#158000000000
0aaaaa

#160000000000
1aaaaa
r0.06 aaaai

#162000000000
0aaaaa

#164000000000
1aaaaa
r0.064 aaaai

#166000000000
0aaaaa

#168000000000
1aaaaa
r0.068 aaaai

#170000000000
0aaaaa

#172000000000
1aaaaa
r0.07200000000000001 aaaai

#174000000000
0aaaaa

#176000000000
1aaaaa
r0.076 aaaai

#178000000000
0aaaaa

#180000000000
1aaaaa
r0.08 aaaai

#182000000000
0aaaaa

#184000000000
1aaaaa
r0.08400000000000001 aaaai

#186000000000
0aaaaa

#188000000000
1aaaaa
r0.08799999999999999 aaaai

#190000000000
0aaaaa

#192000000000
1aaaaa
r0.092 aaaai

#194000000000
0aaaaa

#196000000000
1aaaaa
r0.096 aaaai

#198000000000
0aaaaa

#200000000000
1aaaaa
r0.1 aaaai

#201000000000
b11001000 aaaab
b111000010 aaaac

#202000000000
0aaaaa

#204000000000
1aaaaa
0aaaad
1aaaae
r0.004 aaaaj

#206000000000
0aaaaa

#208000000000
1aaaaa
r0.008 aaaaj

#210000000000
0aaaaa

#212000000000
1aaaaa
r0.012 aaaaj

#214000000000
0aaaaa

#216000000000
1aaaaa
r0.016 aaaaj

#218000000000
0aaaaa

#220000000000
1aaaaa
r0.02 aaaaj

#222000000000
0aaaaa

#224000000000
1aaaaa
r0.024 aaaaj

#226000000000
0aaaaa

#228000000000
1aaaaa
r0.028 aaaaj

#230000000000
0aaaaa

#232000000000
1aaaaa
r0.032 aaaaj

#234000000000
0aaaaa

#236000000000
1aaaaa
r0.036 aaaaj

#238000000000
0aaaaa

#240000000000
1aaaaa
r0.04 aaaaj

#242000000000
0aaaaa

#244000000000
1aaaaa
r0.044 aaaaj

#246000000000
0aaaaa

#248000000000
1aaaaa
r0.048 aaaaj

#250000000000
0aaaaa

#252000000000
1aaaaa
r0.052 aaaaj

#254000000000
0aaaaa

#256000000000
1aaaaa
r0.056 aaaaj

#258000000000
0aaaaa

#260000000000
1aaaaa
r0.06 aaaaj

#262000000000
0aaaaa

#264000000000
1aaaaa
r0.064 aaaaj

#266000000000
0aaaaa

#268000000000
1aaaaa
r0.068 aaaaj

#270000000000
0aaaaa

#272000000000
1aaaaa
r0.07200000000000001 aaaaj

#274000000000
0aaaaa

#276000000000
1aaaaa
r0.076 aaaaj

#278000000000
0aaaaa

#280000000000
1aaaaa
r0.08 aaaaj

#282000000000
0aaaaa

#284000000000
1aaaaa
r0.08400000000000001 aaaaj

#286000000000
0aaaaa

#288000000000
1aaaaa
r0.08799999999999999 aaaaj

#290000000000
0aaaaa

#292000000000
1aaaaa
r0.092 aaaaj

#294000000000
0aaaaa

#296000000000
1aaaaa
r0.096 aaaaj

#298000000000
0aaaaa

#300000000000
1aaaaa
r0.1 aaaaj

#301000000000
b1000100110 aaaac

#302000000000
0aaaaa

#304000000000
1aaaaa
1aaaag
r0.104 aaaaj
r0.004 aaaal

#306000000000
0aaaaa

#308000000000
1aaaaa
r0.108 aaaaj
r0.008 aaaal

#310000000000
0aaaaa

#312000000000
1aaaaa
r0.112 aaaaj
r0.012 aaaal

#314000000000
0aaaaa

#316000000000
1aaaaa
r0.116 aaaaj
r0.016 aaaal

#318000000000
0aaaaa

#320000000000
1aaaaa
r0.12 aaaaj
r0.02 aaaal

#322000000000
0aaaaa

#324000000000
1aaaaa
r0.124 aaaaj
r0.024 aaaal

#326000000000
0aaaaa

#328000000000
1aaaaa
r0.128 aaaaj
r0.028 aaaal

#330000000000
0aaaaa

#332000000000
1aaaaa
r0.132 aaaaj
r0.032 aaaal

#334000000000
0aaaaa

#336000000000
1aaaaa
r0.136 aaaaj
r0.036 aaaal

#338000000000
0aaaaa

#340000000000
1aaaaa
r0.14 aaaaj
r0.04 aaaal

#342000000000
0aaaaa

#344000000000
1aaaaa
r0.144 aaaaj
r0.044 aaaal

#346000000000
0aaaaa

#348000000000
1aaaaa
r0.148 aaaaj
r0.048 aaaal

#350000000000
0aaaaa

#352000000000
1aaaaa
r0.152 aaaaj
r0.052 aaaal

#354000000000
0aaaaa

#356000000000
1aaaaa
r0.156 aaaaj
r0.056 aaaal

#358000000000
0aaaaa

#360000000000
1aaaaa
r0.16 aaaaj
r0.06 aaaal

#362000000000
0aaaaa

#364000000000
1aaaaa
r0.164 aaaaj
r0.064 aaaal

#366000000000
0aaaaa

#368000000000
1aaaaa
r0.168 aaaaj
r0.068 aaaal

#370000000000
0aaaaa

#372000000000
1aaaaa
r0.172 aaaaj
r0.07200000000000001 aaaal

#374000000000
0aaaaa

#376000000000
1aaaaa
r0.176 aaaaj
r0.076 aaaal

#378000000000
0aaaaa

#380000000000
1aaaaa
r0.18 aaaaj
r0.08 aaaal

#382000000000
0aaaaa

#384000000000
1aaaaa
r0.184 aaaaj
r0.08400000000000001 aaaal

#386000000000
0aaaaa

#388000000000
1aaaaa
r0.188 aaaaj
r0.08799999999999999 aaaal

#390000000000
0aaaaa

#392000000000
1aaaaa
r0.192 aaaaj
r0.092 aaaal

#394000000000
0aaaaa

#396000000000
1aaaaa
r0.196 aaaaj
r0.096 aaaal

#398000000000
0aaaaa

#400000000000
1aaaaa
r0.2 aaaaj
r0.1 aaaal

#401000000000
b1010101001 aaaab
b1111101000 aaaac

#402000000000
0aaaaa

#404000000000
1aaaaa
0aaaae
0aaaag
1aaaah
r0.004 aaaam

#406000000000
0aaaaa

#408000000000
1aaaaa
r0.008 aaaam

#410000000000
0aaaaa

#412000000000
1aaaaa
r0.012 aaaam

#414000000000
0aaaaa

#416000000000
1aaaaa
r0.016 aaaam

#418000000000
0aaaaa

#420000000000
1aaaaa
r0.02 aaaam

#422000000000
0aaaaa

#424000000000
1aaaaa
r0.024 aaaam

#426000000000
0aaaaa

#428000000000
1aaaaa
r0.028 aaaam

#430000000000
0aaaaa

#432000000000
1aaaaa
r0.032 aaaam

#434000000000
0aaaaa

#436000000000
1aaaaa
r0.036 aaaam

#438000000000
0aaaaa

#440000000000
1aaaaa
r0.04 aaaam

#442000000000
0aaaaa

#444000000000
1aaaaa
r0.044 aaaam

#446000000000
0aaaaa

#448000000000
1aaaaa
r0.048 aaaam

#450000000000
0aaaaa

#452000000000
1aaaaa
r0.052 aaaam

#454000000000
0aaaaa

#456000000000
1aaaaa
r0.056 aaaam

#458000000000
0aaaaa

#460000000000
1aaaaa
r0.06 aaaam

#462000000000
0aaaaa

#464000000000
1aaaaa
r0.064 aaaam

#466000000000
0aaaaa

#468000000000
1aaaaa
r0.068 aaaam

#470000000000
0aaaaa

#472000000000
1aaaaa
r0.07200000000000001 aaaam

#474000000000
0aaaaa

#476000000000
1aaaaa
r0.076 aaaam

#478000000000
0aaaaa

#480000000000
1aaaaa
r0.08 aaaam

#482000000000
0aaaaa

#484000000000
1aaaaa
r0.08400000000000001 aaaam

#486000000000
0aaaaa

#488000000000
1aaaaa
r0.08799999999999999 aaaam

#490000000000
0aaaaa

#492000000000
1aaaaa
r0.092 aaaam

#494000000000
0aaaaa

#496000000000
1aaaaa
r0.096 aaaam

#498000000000
0aaaaa

#500000000000
1aaaaa
r0.1 aaaam

