mobile:sensor:server/mobileAndSensor.vcd
$date
     Feb 19, 2018       21:16:14
$end

$version
              SystemC 2.3.0-ASI --- Feb  1 2014 18:12:06
$end

$timescale
     1 ps
$end

$scope module SystemC $end
$var wire    1  aaa  clock       $end
$var wire    1  aab  roi1       $end
$var wire    1  aac  roi2       $end
$var wire    1  aad  roi3       $end
$var wire    1  aae  roi4       $end
$var wire    1  aaf  roi5       $end
$var wire    1  aag  roi24       $end
$var wire    1  aah  roi34       $end
$var wire    1  aai  roi234       $end
$var wire    1  aaj  canSend       $end
$var wire    1  aak  network       $end
$var wire    1  aal  sendRequest       $end
$upscope $end
$enddefinitions  $end

$comment
All initial values are dumped below at time 0 sec = 0 timescale units.
$end

$dumpvars
1aaa
0aab
0aac
0aad
0aae
0aaf
0aag
0aah
0aai
1aaj
0aak
0aal
$end

#2000000000
0aaa

#4000000000
1aaa
1aai

#6000000000
0aaa

#8000000000
1aaa

#10000000000
0aaa

#12000000000
1aaa

#14000000000
0aaa

#16000000000
1aaa
1aac
0aai

#18000000000
0aaa

#20000000000
1aaa

#22000000000
0aaa

#24000000000
1aaa

#26000000000
0aaa

#28000000000
1aaa

#30000000000
0aaa

#32000000000
1aaa

#34000000000
0aaa

#36000000000
1aaa

#38000000000
0aaa

#40000000000
1aaa

#42000000000
0aaa

#44000000000
1aaa
0aac
1aai

#46000000000
0aaa

#48000000000
1aaa

#50000000000
0aaa

#52000000000
1aaa

#54000000000
0aaa

#56000000000
1aaa

#58000000000
0aaa

#60000000000
1aaa

#62000000000
0aaa

#64000000000
1aaa

#66000000000
0aaa

#68000000000
1aaa
1aag
0aai

#70000000000
0aaa

#72000000000
1aaa

#74000000000
0aaa

#76000000000
1aaa
1aac
0aag

#78000000000
0aaa

#80000000000
1aaa

#82000000000
0aaa

#84000000000
1aaa
0aac
1aae

#86000000000
0aaa

#88000000000
1aaa

#90000000000
0aaa

#92000000000
1aaa

#94000000000
0aaa

#96000000000
1aaa

#98000000000
0aaa

#100000000000
1aaa
0aae
1aag

#102000000000
0aaa

#104000000000
1aaa

#106000000000
0aaa

#108000000000
1aaa
0aag
1aai

#110000000000
0aaa

#112000000000
1aaa
1aag
0aai

#114000000000
0aaa

#116000000000
1aaa

#118000000000
0aaa

#120000000000
1aaa

#122000000000
0aaa

#124000000000
1aaa
1aae
0aag

#126000000000
0aaa

#128000000000
1aaa

#130000000000
0aaa

#132000000000
1aaa

#134000000000
0aaa

#136000000000
1aaa

#138000000000
0aaa

#140000000000
1aaa
0aae
1aah

#142000000000
0aaa

#144000000000
1aaa
1aae
0aah

#146000000000
0aaa

#148000000000
1aaa

#150000000000
0aaa

#152000000000
1aaa
0aae
1aai

#154000000000
0aaa

#156000000000
1aaa

#158000000000
0aaa

#160000000000
1aaa

#162000000000
0aaa

#164000000000
1aaa
1aae
0aai

#166000000000
0aaa

#168000000000
1aaa
0aae
1aai

#170000000000
0aaa

#172000000000
1aaa

#174000000000
0aaa

#176000000000
1aaa

#178000000000
0aaa

#180000000000
1aaa
1aae
0aai

#182000000000
0aaa

#184000000000
1aaa

#186000000000
0aaa

#188000000000
1aaa

#190000000000
0aaa

#192000000000
1aaa

#194000000000
0aaa

#196000000000
1aaa
0aae
1aai

#198000000000
0aaa

#200000000000
1aaa
1aae
0aai

#202000000000
0aaa

#204000000000
1aaa

#206000000000
0aaa

#208000000000
1aaa

#210000000000
0aaa

#212000000000
1aaa
0aae
1aai

#214000000000
0aaa

#216000000000
1aaa

#218000000000
0aaa

#220000000000
1aaa

#222000000000
0aaa

#224000000000
1aaa

#226000000000
0aaa

#228000000000
1aaa

#230000000000
0aaa

#232000000000
1aaa
1aah
0aai
1aal

#234000000000
0aaa

#236000000000
1aaa
0aal

#238000000000
0aaa

#240000000000
1aaa
1aac
0aah

#242000000000
0aaa

#244000000000
1aaa
0aac
1aah

#246000000000
0aaa

#248000000000
1aaa
1aae
0aah

#250000000000
0aaa

#252000000000
1aaa

#254000000000
0aaa

#256000000000
1aaa

#258000000000
0aaa

#260000000000
1aaa

#262000000000
0aaa

#264000000000
1aaa

#266000000000
0aaa

#268000000000
1aaa
1aac
0aae

#270000000000
0aaa

#272000000000
1aaa
0aac
1aae

#274000000000
0aaa

#276000000000
1aaa
0aae
1aai

#278000000000
0aaa

#280000000000
1aaa

#282000000000
0aaa

#284000000000
1aaa

#286000000000
0aaa

#288000000000
1aaa

#290000000000
0aaa

#292000000000
1aaa
1aae
0aai

#294000000000
0aaa

#296000000000
1aaa

#298000000000
0aaa

#300000000000
1aaa

#302000000000
0aaa

#304000000000
1aaa

#306000000000
0aaa

#308000000000
1aaa

#310000000000
0aaa

#312000000000
1aaa

#314000000000
0aaa

#316000000000
1aaa

#318000000000
0aaa

#320000000000
1aaa

#322000000000
0aaa

#324000000000
1aaa

#326000000000
0aaa

#328000000000
1aaa

#330000000000
0aaa

#332000000000
1aaa

#334000000000
0aaa

#336000000000
1aaa

#338000000000
0aaa

#340000000000
1aaa

#342000000000
0aaa

#344000000000
1aaa

#346000000000
0aaa

#348000000000
1aaa
0aae
1aai

#350000000000
0aaa

#352000000000
1aaa

#354000000000
0aaa

#356000000000
1aaa

#358000000000
0aaa

#360000000000
1aaa

#362000000000
0aaa

#364000000000
1aaa

#366000000000
0aaa

#368000000000
1aaa

#370000000000
0aaa

#372000000000
1aaa

#374000000000
0aaa

#376000000000
1aaa

#378000000000
0aaa

#380000000000
1aaa

#382000000000
0aaa

#384000000000
1aaa

#386000000000
0aaa

#388000000000
1aaa

#390000000000
0aaa

#392000000000
1aaa

#394000000000
0aaa

#396000000000
1aaa

#398000000000
0aaa

#400000000000
1aaa

#402000000000
0aaa

#404000000000
1aaa

#406000000000
0aaa

#408000000000
1aaa
1aae
0aai

#410000000000
0aaa

#412000000000
1aaa

#414000000000
0aaa

#416000000000
1aaa

#418000000000
0aaa

#420000000000
1aaa

#422000000000
0aaa

#424000000000
1aaa

#426000000000
0aaa

#428000000000
1aaa

#430000000000
0aaa

#432000000000
1aaa

#434000000000
0aaa

#436000000000
1aaa

#438000000000
0aaa

#440000000000
1aaa
1aac
0aae

#442000000000
0aaa

#444000000000
1aaa
0aac
1aai

#446000000000
0aaa

#448000000000
1aaa

#450000000000
0aaa

#452000000000
1aaa

#454000000000
0aaa

#456000000000
1aaa

#458000000000
0aaa

#460000000000
1aaa
1aae
0aai

#462000000000
0aaa

#464000000000
1aaa

#466000000000
0aaa

#468000000000
1aaa

#470000000000
0aaa

#472000000000
1aaa

#474000000000
0aaa

#476000000000
1aaa
0aae
1aai

#478000000000
0aaa

#480000000000
1aaa

#482000000000
0aaa

#484000000000
1aaa

#486000000000
0aaa

#488000000000
1aaa

#490000000000
0aaa

#492000000000
1aaa

#494000000000
0aaa

#496000000000
1aaa

#498000000000
0aaa

#500000000000
1aaa

#502000000000
0aaa

#504000000000
1aaa

#506000000000
0aaa

#508000000000
1aaa

#510000000000
0aaa

#512000000000
1aaa

#514000000000
0aaa

#516000000000
1aaa

#518000000000
0aaa

#520000000000
1aaa

#522000000000
0aaa

#524000000000
1aaa

#526000000000
0aaa

#528000000000
1aaa
1aac
0aai

#530000000000
0aaa

#532000000000
1aaa
0aac
1aai

#534000000000
0aaa

#536000000000
1aaa

#538000000000
0aaa

#540000000000
1aaa
1aae
0aai

#542000000000
0aaa

#544000000000
1aaa

#546000000000
0aaa

#548000000000
1aaa

#550000000000
0aaa

#552000000000
1aaa

#554000000000
0aaa

#556000000000
1aaa

#558000000000
0aaa

#560000000000
1aaa

#562000000000
0aaa

#564000000000
1aaa

#566000000000
0aaa

#568000000000
1aaa

#570000000000
0aaa

#572000000000
1aaa

#574000000000
0aaa

#576000000000
1aaa

#578000000000
0aaa

#580000000000
1aaa

#582000000000
0aaa

#584000000000
1aaa

#586000000000
0aaa

#588000000000
1aaa

#590000000000
0aaa

#592000000000
1aaa
0aae
1aag

#594000000000
0aaa

#596000000000
1aaa

#598000000000
0aaa

#600000000000
1aaa

#602000000000
0aaa

#604000000000
1aaa
1aac
0aag

#606000000000
0aaa

#608000000000
1aaa
0aac
1aai

#610000000000
0aaa

#612000000000
1aaa
1aag
0aai
1aal

#614000000000
0aaa

#616000000000
1aaa
0aal

#618000000000
0aaa

#620000000000
1aaa
1aac
0aag

#622000000000
0aaa

#624000000000
1aaa

#626000000000
0aaa

#628000000000
1aaa
0aac
1aae

#630000000000
0aaa

#632000000000
1aaa

#634000000000
0aaa

#636000000000
1aaa

#638000000000
0aaa

#640000000000
1aaa

#642000000000
0aaa

#644000000000
1aaa

#646000000000
0aaa

#648000000000
1aaa

#650000000000
0aaa

#652000000000
1aaa
0aae
1aai

#654000000000
0aaa

#656000000000
1aaa

#658000000000
0aaa

#660000000000
1aaa

#662000000000
0aaa

#664000000000
1aaa

#666000000000
0aaa

#668000000000
1aaa

#670000000000
0aaa

#672000000000
1aaa

#674000000000
0aaa

#676000000000
1aaa

#678000000000
0aaa

#680000000000
1aaa

#682000000000
0aaa

#684000000000
1aaa
1aae
0aai

#686000000000
0aaa

#688000000000
1aaa

#690000000000
0aaa

#692000000000
1aaa

#694000000000
0aaa

#696000000000
1aaa

#698000000000
0aaa

#700000000000
1aaa

#702000000000
0aaa

#704000000000
1aaa

#706000000000
0aaa

#708000000000
1aaa

#710000000000
0aaa

#712000000000
1aaa

#714000000000
0aaa

#716000000000
1aaa

#718000000000
0aaa

#720000000000
1aaa
1aac
0aae

#722000000000
0aaa

#724000000000
1aaa

#726000000000
0aaa

#728000000000
1aaa

#730000000000
0aaa

#732000000000
1aaa

#734000000000
0aaa

#736000000000
1aaa

#738000000000
0aaa

#740000000000
1aaa

#742000000000
0aaa

#744000000000
1aaa
0aac
1aai

#746000000000
0aaa

#748000000000
1aaa

#750000000000
0aaa

#752000000000
1aaa

#754000000000
0aaa

#756000000000
1aaa

#758000000000
0aaa

#760000000000
1aaa

#762000000000
0aaa

#764000000000
1aaa

#766000000000
0aaa

#768000000000
1aaa

#770000000000
0aaa

#772000000000
1aaa

#774000000000
0aaa

#776000000000
1aaa
1aac
0aai

#778000000000
0aaa

#780000000000
1aaa
0aac
1aae

#782000000000
0aaa

#784000000000
1aaa

#786000000000
0aaa

#788000000000
1aaa

#790000000000
0aaa

#792000000000
1aaa
0aae
1aah

#794000000000
0aaa

#796000000000
1aaa

#798000000000
0aaa

#800000000000
1aaa
1aae
0aah

#802000000000
0aaa

#804000000000
1aaa

#806000000000
0aaa

#808000000000
1aaa

#810000000000
0aaa

#812000000000
1aaa

#814000000000
0aaa

#816000000000
1aaa

#818000000000
0aaa

#820000000000
1aaa

#822000000000
0aaa

#824000000000
1aaa
0aae
1aai

#826000000000
0aaa

#828000000000
1aaa

#830000000000
0aaa

#832000000000
1aaa

#834000000000
0aaa

#836000000000
1aaa

#838000000000
0aaa

#840000000000
1aaa
1aae
0aai

#842000000000
0aaa

#844000000000
1aaa

#846000000000
0aaa

#848000000000
1aaa

#850000000000
0aaa

#852000000000
1aaa

#854000000000
0aaa

#856000000000
1aaa

#858000000000
0aaa

#860000000000
1aaa

#862000000000
0aaa

#864000000000
1aaa

#866000000000
0aaa

#868000000000
1aaa

#870000000000
0aaa

#872000000000
1aaa

#874000000000
0aaa

#876000000000
1aaa

#878000000000
0aaa

#880000000000
1aaa
0aae
1aag

#882000000000
0aaa

#884000000000
1aaa

#886000000000
0aaa

#888000000000
1aaa
0aag
1aai

#890000000000
0aaa

#892000000000
1aaa

#894000000000
0aaa

#896000000000
1aaa

#898000000000
0aaa

#900000000000
1aaa

#902000000000
0aaa

#904000000000
1aaa

#906000000000
0aaa

#908000000000
1aaa

#910000000000
0aaa

#912000000000
1aaa
1aae
0aai

#914000000000
0aaa

#916000000000
1aaa

#918000000000
0aaa

#920000000000
1aaa

#922000000000
0aaa

#924000000000
1aaa
1aac
0aae

#926000000000
0aaa

#928000000000
1aaa

#930000000000
0aaa

#932000000000
1aaa

#934000000000
0aaa

#936000000000
1aaa

#938000000000
0aaa

#940000000000
1aaa

#942000000000
0aaa

#944000000000
1aaa

#946000000000
0aaa

#948000000000
1aaa
0aac
1aag

#950000000000
0aaa

#952000000000
1aaa

#954000000000
0aaa

#956000000000
1aaa

#958000000000
0aaa

#960000000000
1aaa
0aag
1aai

#962000000000
0aaa

#964000000000
1aaa

#966000000000
0aaa

#968000000000
1aaa

#970000000000
0aaa

#972000000000
1aaa
1aah
0aai

#974000000000
0aaa

#976000000000
1aaa

#978000000000
0aaa

#980000000000
1aaa
1aac
0aah
1aal

#982000000000
0aaa

#984000000000
1aaa
0aal

#986000000000
0aaa

#988000000000
1aaa

#990000000000
0aaa

#992000000000
1aaa

#994000000000
0aaa

#996000000000
1aaa

#998000000000
0aaa

#1000000000000
1aaa

#1002000000000
0aaa

#1004000000000
1aaa

#1006000000000
0aaa

#1008000000000
1aaa

#1010000000000
0aaa

#1012000000000
1aaa

#1014000000000
0aaa

#1016000000000
1aaa
0aac
1aag

#1018000000000
0aaa

#1020000000000
1aaa

#1022000000000
0aaa

#1024000000000
1aaa
1aae
0aag

#1026000000000
0aaa

#1028000000000
1aaa

#1030000000000
0aaa

#1032000000000
1aaa

#1034000000000
0aaa

#1036000000000
1aaa

#1038000000000
0aaa

#1040000000000
1aaa

#1042000000000
0aaa

#1044000000000
1aaa
1aac
0aae

#1046000000000
0aaa

#1048000000000
1aaa

#1050000000000
0aaa

#1052000000000
1aaa
0aac
1aag

#1054000000000
0aaa

#1056000000000
1aaa

#1058000000000
0aaa

#1060000000000
1aaa

#1062000000000
0aaa

#1064000000000
1aaa

#1066000000000
0aaa

#1068000000000
1aaa
0aag
1aah

#1070000000000
0aaa

#1072000000000
1aaa

#1074000000000
0aaa

#1076000000000
1aaa
1aae
0aah

#1078000000000
0aaa

#1080000000000
1aaa

#1082000000000
0aaa

#1084000000000
1aaa

#1086000000000
0aaa

#1088000000000
1aaa

#1090000000000
0aaa

#1092000000000
1aaa

#1094000000000
0aaa

#1096000000000
1aaa

#1098000000000
0aaa

#1100000000000
1aaa
0aae
1aah

#1102000000000
0aaa

#1104000000000
1aaa

#1106000000000
0aaa

#1108000000000
1aaa
1aae
0aah

#1110000000000
0aaa

#1112000000000
1aaa
0aae
1aai

